%TF.GenerationSoftware,KiCad,Pcbnew,5.1.6-c6e7f7d~87~ubuntu20.04.1*%
%TF.CreationDate,2020-07-24T19:07:21-04:00*%
%TF.ProjectId,tiny_blinky,74696e79-5f62-46c6-996e-6b792e6b6963,ver1*%
%TF.SameCoordinates,Original*%
%TF.FileFunction,Soldermask,Bot*%
%TF.FilePolarity,Negative*%
%FSLAX46Y46*%
G04 Gerber Fmt 4.6, Leading zero omitted, Abs format (unit mm)*
G04 Created by KiCad (PCBNEW 5.1.6-c6e7f7d~87~ubuntu20.04.1) date 2020-07-24 19:07:21*
%MOMM*%
%LPD*%
G01*
G04 APERTURE LIST*
%ADD10O,1.800000X1.800000*%
%ADD11R,1.800000X1.800000*%
%ADD12R,1.700000X1.700000*%
%ADD13C,1.700000*%
%ADD14C,6.500000*%
%ADD15C,0.900000*%
%ADD16O,1.700000X1.700000*%
%ADD17C,2.100000*%
G04 APERTURE END LIST*
D10*
%TO.C,J1*%
X91821000Y-43815000D03*
X91821000Y-46355000D03*
X89281000Y-43815000D03*
X89281000Y-46355000D03*
X86741000Y-43815000D03*
D11*
X86741000Y-46355000D03*
%TD*%
D12*
%TO.C,C1*%
X82931000Y-69850000D03*
D13*
X82931000Y-66350000D03*
%TD*%
%TO.C,C2*%
X100076000Y-61635000D03*
X100076000Y-64135000D03*
%TD*%
D14*
%TO.C,H1*%
X54356000Y-72644000D03*
D15*
X56756000Y-72644000D03*
X56053056Y-74341056D03*
X54356000Y-75044000D03*
X52658944Y-74341056D03*
X51956000Y-72644000D03*
X52658944Y-70946944D03*
X54356000Y-70244000D03*
X56053056Y-70946944D03*
%TD*%
%TO.C,H2*%
X56053056Y-37418944D03*
X54356000Y-36716000D03*
X52658944Y-37418944D03*
X51956000Y-39116000D03*
X52658944Y-40813056D03*
X54356000Y-41516000D03*
X56053056Y-40813056D03*
X56756000Y-39116000D03*
D14*
X54356000Y-39116000D03*
%TD*%
%TO.C,H3*%
X105791000Y-72644000D03*
D15*
X108191000Y-72644000D03*
X107488056Y-74341056D03*
X105791000Y-75044000D03*
X104093944Y-74341056D03*
X103391000Y-72644000D03*
X104093944Y-70946944D03*
X105791000Y-70244000D03*
X107488056Y-70946944D03*
%TD*%
%TO.C,H4*%
X107488056Y-37418944D03*
X105791000Y-36716000D03*
X104093944Y-37418944D03*
X103391000Y-39116000D03*
X104093944Y-40813056D03*
X105791000Y-41516000D03*
X107488056Y-40813056D03*
X108191000Y-39116000D03*
D14*
X105791000Y-39116000D03*
%TD*%
D11*
%TO.C,J2*%
X122174000Y-54610000D03*
D10*
X122174000Y-57150000D03*
X122174000Y-59690000D03*
%TD*%
%TO.C,J3*%
X74930000Y-67310000D03*
D11*
X74930000Y-69850000D03*
%TD*%
%TO.C,J4*%
X100076000Y-70485000D03*
D10*
X100076000Y-67945000D03*
%TD*%
D13*
%TO.C,R1*%
X78486000Y-52070000D03*
D16*
X78486000Y-59690000D03*
%TD*%
%TO.C,R2*%
X96774000Y-59690000D03*
D13*
X96774000Y-52070000D03*
%TD*%
D17*
%TO.C,SW1*%
X75311000Y-47680000D03*
X75311000Y-43180000D03*
X81811000Y-47680000D03*
X81811000Y-43180000D03*
%TD*%
D12*
%TO.C,U1*%
X84074000Y-59690000D03*
D16*
X91694000Y-52070000D03*
X86614000Y-59690000D03*
X89154000Y-52070000D03*
X89154000Y-59690000D03*
X86614000Y-52070000D03*
X91694000Y-59690000D03*
X84074000Y-52070000D03*
%TD*%
M02*
