%TF.GenerationSoftware,KiCad,Pcbnew,5.1.6-c6e7f7d~87~ubuntu20.04.1*%
%TF.CreationDate,2020-07-24T19:07:21-04:00*%
%TF.ProjectId,tiny_blinky,74696e79-5f62-46c6-996e-6b792e6b6963,ver1*%
%TF.SameCoordinates,Original*%
%TF.FileFunction,Copper,L2,Bot*%
%TF.FilePolarity,Positive*%
%FSLAX46Y46*%
G04 Gerber Fmt 4.6, Leading zero omitted, Abs format (unit mm)*
G04 Created by KiCad (PCBNEW 5.1.6-c6e7f7d~87~ubuntu20.04.1) date 2020-07-24 19:07:21*
%MOMM*%
%LPD*%
G01*
G04 APERTURE LIST*
%TA.AperFunction,ComponentPad*%
%ADD10O,1.700000X1.700000*%
%TD*%
%TA.AperFunction,ComponentPad*%
%ADD11R,1.700000X1.700000*%
%TD*%
%TA.AperFunction,ComponentPad*%
%ADD12R,1.600000X1.600000*%
%TD*%
%TA.AperFunction,ComponentPad*%
%ADD13C,1.600000*%
%TD*%
%TA.AperFunction,ComponentPad*%
%ADD14C,6.400000*%
%TD*%
%TA.AperFunction,ComponentPad*%
%ADD15C,0.800000*%
%TD*%
%TA.AperFunction,ComponentPad*%
%ADD16O,1.600000X1.600000*%
%TD*%
%TA.AperFunction,ComponentPad*%
%ADD17C,2.000000*%
%TD*%
%TA.AperFunction,ViaPad*%
%ADD18C,0.812800*%
%TD*%
%TA.AperFunction,Conductor*%
%ADD19C,0.508000*%
%TD*%
%TA.AperFunction,Conductor*%
%ADD20C,0.254000*%
%TD*%
G04 APERTURE END LIST*
D10*
%TO.P,J1,6*%
%TO.N,GND*%
X91821000Y-43815000D03*
%TO.P,J1,5*%
%TO.N,/RST*%
X91821000Y-46355000D03*
%TO.P,J1,4*%
%TO.N,/MOSI*%
X89281000Y-43815000D03*
%TO.P,J1,3*%
%TO.N,/SCK*%
X89281000Y-46355000D03*
%TO.P,J1,2*%
%TO.N,+5V*%
X86741000Y-43815000D03*
D11*
%TO.P,J1,1*%
%TO.N,/MISO*%
X86741000Y-46355000D03*
%TD*%
D12*
%TO.P,C1,1*%
%TO.N,/power_supply/Vin*%
X82931000Y-69850000D03*
D13*
%TO.P,C1,2*%
%TO.N,GND*%
X82931000Y-66350000D03*
%TD*%
%TO.P,C2,2*%
%TO.N,GND*%
X100076000Y-61635000D03*
%TO.P,C2,1*%
%TO.N,+5V*%
X100076000Y-64135000D03*
%TD*%
D14*
%TO.P,H1,1*%
%TO.N,GND*%
X54356000Y-72644000D03*
D15*
X56756000Y-72644000D03*
X56053056Y-74341056D03*
X54356000Y-75044000D03*
X52658944Y-74341056D03*
X51956000Y-72644000D03*
X52658944Y-70946944D03*
X54356000Y-70244000D03*
X56053056Y-70946944D03*
%TD*%
%TO.P,H2,1*%
%TO.N,GND*%
X56053056Y-37418944D03*
X54356000Y-36716000D03*
X52658944Y-37418944D03*
X51956000Y-39116000D03*
X52658944Y-40813056D03*
X54356000Y-41516000D03*
X56053056Y-40813056D03*
X56756000Y-39116000D03*
D14*
X54356000Y-39116000D03*
%TD*%
%TO.P,H3,1*%
%TO.N,GND*%
X105791000Y-72644000D03*
D15*
X108191000Y-72644000D03*
X107488056Y-74341056D03*
X105791000Y-75044000D03*
X104093944Y-74341056D03*
X103391000Y-72644000D03*
X104093944Y-70946944D03*
X105791000Y-70244000D03*
X107488056Y-70946944D03*
%TD*%
%TO.P,H4,1*%
%TO.N,GND*%
X107488056Y-37418944D03*
X105791000Y-36716000D03*
X104093944Y-37418944D03*
X103391000Y-39116000D03*
X104093944Y-40813056D03*
X105791000Y-41516000D03*
X107488056Y-40813056D03*
X108191000Y-39116000D03*
D14*
X105791000Y-39116000D03*
%TD*%
D11*
%TO.P,J2,1*%
%TO.N,+5V*%
X122174000Y-54610000D03*
D10*
%TO.P,J2,2*%
%TO.N,Net-(D3-Pad2)*%
X122174000Y-57150000D03*
%TO.P,J2,3*%
%TO.N,GND*%
X122174000Y-59690000D03*
%TD*%
%TO.P,J3,2*%
%TO.N,GND*%
X74930000Y-67310000D03*
D11*
%TO.P,J3,1*%
%TO.N,/power_supply/Vin*%
X74930000Y-69850000D03*
%TD*%
%TO.P,J4,1*%
%TO.N,+5V*%
X100076000Y-70485000D03*
D10*
%TO.P,J4,2*%
%TO.N,GND*%
X100076000Y-67945000D03*
%TD*%
D13*
%TO.P,R1,1*%
%TO.N,/SW_IN*%
X78486000Y-52070000D03*
D16*
%TO.P,R1,2*%
%TO.N,GND*%
X78486000Y-59690000D03*
%TD*%
%TO.P,R2,2*%
%TO.N,/LED*%
X96774000Y-59690000D03*
D13*
%TO.P,R2,1*%
%TO.N,/Din*%
X96774000Y-52070000D03*
%TD*%
D17*
%TO.P,SW1,2*%
%TO.N,/SW_IN*%
X75311000Y-47680000D03*
%TO.P,SW1,1*%
%TO.N,+5V*%
X75311000Y-43180000D03*
%TO.P,SW1,2*%
%TO.N,/SW_IN*%
X81811000Y-47680000D03*
%TO.P,SW1,1*%
%TO.N,+5V*%
X81811000Y-43180000D03*
%TD*%
D12*
%TO.P,U1,1*%
%TO.N,/RST*%
X84074000Y-59690000D03*
D16*
%TO.P,U1,5*%
%TO.N,/MOSI*%
X91694000Y-52070000D03*
%TO.P,U1,2*%
%TO.N,/SW_IN*%
X86614000Y-59690000D03*
%TO.P,U1,6*%
%TO.N,/MISO*%
X89154000Y-52070000D03*
%TO.P,U1,3*%
%TO.N,/LED*%
X89154000Y-59690000D03*
%TO.P,U1,7*%
%TO.N,/SCK*%
X86614000Y-52070000D03*
%TO.P,U1,4*%
%TO.N,GND*%
X91694000Y-59690000D03*
%TO.P,U1,8*%
%TO.N,+5V*%
X84074000Y-52070000D03*
%TD*%
D18*
%TO.N,GND*%
X118821000Y-57531000D03*
X118821000Y-48768000D03*
X118821000Y-66548000D03*
%TD*%
D19*
%TO.N,GND*%
X82606000Y-66675000D02*
X82931000Y-66350000D01*
X100076000Y-67945000D02*
X91567000Y-67945000D01*
X91821000Y-59817000D02*
X91694000Y-59690000D01*
X91694000Y-63119000D02*
X91694000Y-59690000D01*
X88463000Y-66350000D02*
X91694000Y-63119000D01*
X82931000Y-66350000D02*
X88463000Y-66350000D01*
X100036000Y-61595000D02*
X94869000Y-61595000D01*
X100076000Y-61635000D02*
X100036000Y-61595000D01*
X92964000Y-59690000D02*
X91694000Y-59690000D01*
X94742000Y-61468000D02*
X92964000Y-59690000D01*
X89281000Y-65659000D02*
X89154000Y-65659000D01*
X91440000Y-67818000D02*
X89281000Y-65659000D01*
X120229000Y-61635000D02*
X122174000Y-59690000D01*
X100076000Y-61635000D02*
X120229000Y-61635000D01*
X54356000Y-73025000D02*
X56261000Y-73025000D01*
X58242210Y-75006210D02*
X101803210Y-75006210D01*
X56261000Y-73025000D02*
X58242210Y-75006210D01*
X103784420Y-73025000D02*
X105791000Y-73025000D01*
X101803210Y-75006210D02*
X103784420Y-73025000D01*
X118821000Y-48768000D02*
X118821000Y-66548000D01*
X54356000Y-39116000D02*
X56896000Y-36576000D01*
X103251000Y-36576000D02*
X105791000Y-39116000D01*
X91821000Y-36703000D02*
X91948000Y-36576000D01*
X91821000Y-43815000D02*
X91821000Y-36703000D01*
X91948000Y-36576000D02*
X103251000Y-36576000D01*
X56896000Y-36576000D02*
X91948000Y-36576000D01*
X78486000Y-63754000D02*
X74930000Y-67310000D01*
X82931000Y-66350000D02*
X82931000Y-64897000D01*
X80391000Y-62357000D02*
X78486000Y-62357000D01*
X82931000Y-64897000D02*
X80391000Y-62357000D01*
X78486000Y-62357000D02*
X78486000Y-63754000D01*
X78486000Y-59690000D02*
X78486000Y-62357000D01*
X54356000Y-73025000D02*
X54356000Y-39243000D01*
X100076000Y-67945000D02*
X101981000Y-67945000D01*
X105791000Y-71755000D02*
X105791000Y-73152000D01*
X101981000Y-67945000D02*
X105791000Y-71755000D01*
%TD*%
D20*
%TO.N,GND*%
G36*
X51834724Y-36415119D02*
G01*
X54356000Y-38936395D01*
X56877276Y-36415119D01*
X56752729Y-36245800D01*
X103394271Y-36245800D01*
X103269724Y-36415119D01*
X105791000Y-38936395D01*
X105805143Y-38922253D01*
X105984748Y-39101858D01*
X105970605Y-39116000D01*
X108491881Y-41637276D01*
X108981548Y-41277088D01*
X109125351Y-41012086D01*
X109351679Y-41430673D01*
X109386416Y-41482172D01*
X109420472Y-41534215D01*
X109426524Y-41541636D01*
X109868903Y-42076379D01*
X109913006Y-42120176D01*
X109956498Y-42164588D01*
X109963870Y-42170686D01*
X109963875Y-42170691D01*
X109963880Y-42170695D01*
X110501694Y-42609325D01*
X110553469Y-42643724D01*
X110604753Y-42678839D01*
X110613176Y-42683393D01*
X111225951Y-43009212D01*
X111283444Y-43032909D01*
X111340549Y-43057384D01*
X111349696Y-43060216D01*
X112014085Y-43260807D01*
X112075048Y-43272878D01*
X112135858Y-43285803D01*
X112145381Y-43286804D01*
X112836078Y-43354527D01*
X112836079Y-43354527D01*
X112869311Y-43357800D01*
X120870459Y-43357800D01*
X121460851Y-43415688D01*
X121996497Y-43577409D01*
X122490526Y-43840090D01*
X122924123Y-44193723D01*
X123280778Y-44624844D01*
X123546899Y-45117026D01*
X123712356Y-45651530D01*
X123774200Y-46239942D01*
X123774201Y-65498449D01*
X123716312Y-66088851D01*
X123554591Y-66624497D01*
X123291911Y-67118525D01*
X122938279Y-67552121D01*
X122507156Y-67908777D01*
X122014977Y-68174898D01*
X121480470Y-68340356D01*
X120892058Y-68402200D01*
X112869311Y-68402200D01*
X112838194Y-68405265D01*
X112816020Y-68405110D01*
X112806490Y-68406044D01*
X112116282Y-68478587D01*
X112055415Y-68491081D01*
X111994336Y-68502733D01*
X111985169Y-68505500D01*
X111322198Y-68710725D01*
X111264883Y-68734818D01*
X111207268Y-68758096D01*
X111198813Y-68762591D01*
X110588328Y-69092679D01*
X110536819Y-69127422D01*
X110484785Y-69161473D01*
X110477364Y-69167524D01*
X109942620Y-69609903D01*
X109898838Y-69653992D01*
X109854412Y-69697498D01*
X109848309Y-69704876D01*
X109409675Y-70242695D01*
X109375293Y-70294443D01*
X109340161Y-70345753D01*
X109335607Y-70354176D01*
X109126519Y-70747413D01*
X109008555Y-70523330D01*
X108981548Y-70482912D01*
X108491881Y-70122724D01*
X105970605Y-72644000D01*
X105984748Y-72658143D01*
X105805143Y-72837748D01*
X105791000Y-72823605D01*
X103269724Y-75344881D01*
X103394271Y-75514200D01*
X56752729Y-75514200D01*
X56877276Y-75344881D01*
X54356000Y-72823605D01*
X51834724Y-75344881D01*
X51959271Y-75514200D01*
X51485800Y-75514200D01*
X51485800Y-75040729D01*
X51655119Y-75165276D01*
X54176395Y-72644000D01*
X54535605Y-72644000D01*
X57056881Y-75165276D01*
X57546548Y-74805088D01*
X57906849Y-74141118D01*
X58130694Y-73419615D01*
X58209480Y-72668305D01*
X58140178Y-71916062D01*
X57925452Y-71191792D01*
X57573555Y-70523330D01*
X57546548Y-70482912D01*
X57056881Y-70122724D01*
X54535605Y-72644000D01*
X54176395Y-72644000D01*
X51655119Y-70122724D01*
X51485800Y-70247271D01*
X51485800Y-69943119D01*
X51834724Y-69943119D01*
X54356000Y-72464395D01*
X56877276Y-69943119D01*
X56517088Y-69453452D01*
X55853118Y-69093151D01*
X55131615Y-68869306D01*
X54380305Y-68790520D01*
X53628062Y-68859822D01*
X52903792Y-69074548D01*
X52235330Y-69426445D01*
X52194912Y-69453452D01*
X51834724Y-69943119D01*
X51485800Y-69943119D01*
X51485800Y-63881000D01*
X59690000Y-63881000D01*
X59690000Y-74168000D01*
X59692440Y-74192776D01*
X59699667Y-74216601D01*
X59711403Y-74238557D01*
X59727197Y-74257803D01*
X59746443Y-74273597D01*
X59768399Y-74285333D01*
X59792224Y-74292560D01*
X59817000Y-74295000D01*
X68326000Y-74295000D01*
X68350776Y-74292560D01*
X68374601Y-74285333D01*
X68396557Y-74273597D01*
X68415803Y-74257803D01*
X68431597Y-74238557D01*
X68443333Y-74216601D01*
X68450560Y-74192776D01*
X68453000Y-74168000D01*
X68453000Y-72619695D01*
X101937520Y-72619695D01*
X102006822Y-73371938D01*
X102221548Y-74096208D01*
X102573445Y-74764670D01*
X102600452Y-74805088D01*
X103090119Y-75165276D01*
X105611395Y-72644000D01*
X103090119Y-70122724D01*
X102600452Y-70482912D01*
X102240151Y-71146882D01*
X102016306Y-71868385D01*
X101937520Y-72619695D01*
X68453000Y-72619695D01*
X68453000Y-69000000D01*
X73441928Y-69000000D01*
X73441928Y-70700000D01*
X73454188Y-70824482D01*
X73490498Y-70944180D01*
X73549463Y-71054494D01*
X73628815Y-71151185D01*
X73725506Y-71230537D01*
X73835820Y-71289502D01*
X73955518Y-71325812D01*
X74080000Y-71338072D01*
X75780000Y-71338072D01*
X75904482Y-71325812D01*
X76024180Y-71289502D01*
X76134494Y-71230537D01*
X76231185Y-71151185D01*
X76310537Y-71054494D01*
X76369502Y-70944180D01*
X76405812Y-70824482D01*
X76418072Y-70700000D01*
X76418072Y-69050000D01*
X81492928Y-69050000D01*
X81492928Y-70650000D01*
X81505188Y-70774482D01*
X81541498Y-70894180D01*
X81600463Y-71004494D01*
X81679815Y-71101185D01*
X81776506Y-71180537D01*
X81886820Y-71239502D01*
X82006518Y-71275812D01*
X82131000Y-71288072D01*
X83731000Y-71288072D01*
X83855482Y-71275812D01*
X83975180Y-71239502D01*
X84085494Y-71180537D01*
X84182185Y-71101185D01*
X84261537Y-71004494D01*
X84320502Y-70894180D01*
X84356812Y-70774482D01*
X84369072Y-70650000D01*
X84369072Y-69635000D01*
X98587928Y-69635000D01*
X98587928Y-71335000D01*
X98600188Y-71459482D01*
X98636498Y-71579180D01*
X98695463Y-71689494D01*
X98774815Y-71786185D01*
X98871506Y-71865537D01*
X98981820Y-71924502D01*
X99101518Y-71960812D01*
X99226000Y-71973072D01*
X100926000Y-71973072D01*
X101050482Y-71960812D01*
X101170180Y-71924502D01*
X101280494Y-71865537D01*
X101377185Y-71786185D01*
X101456537Y-71689494D01*
X101515502Y-71579180D01*
X101551812Y-71459482D01*
X101564072Y-71335000D01*
X101564072Y-69943119D01*
X103269724Y-69943119D01*
X105791000Y-72464395D01*
X108312276Y-69943119D01*
X107952088Y-69453452D01*
X107288118Y-69093151D01*
X106566615Y-68869306D01*
X105815305Y-68790520D01*
X105063062Y-68859822D01*
X104338792Y-69074548D01*
X103670330Y-69426445D01*
X103629912Y-69453452D01*
X103269724Y-69943119D01*
X101564072Y-69943119D01*
X101564072Y-69635000D01*
X101551812Y-69510518D01*
X101515502Y-69390820D01*
X101456537Y-69280506D01*
X101377185Y-69183815D01*
X101280494Y-69104463D01*
X101170180Y-69045498D01*
X101089534Y-69021034D01*
X101173588Y-68945269D01*
X101347641Y-68711920D01*
X101472825Y-68449099D01*
X101517476Y-68301890D01*
X101396155Y-68072000D01*
X100203000Y-68072000D01*
X100203000Y-68092000D01*
X99949000Y-68092000D01*
X99949000Y-68072000D01*
X98755845Y-68072000D01*
X98634524Y-68301890D01*
X98679175Y-68449099D01*
X98804359Y-68711920D01*
X98978412Y-68945269D01*
X99062466Y-69021034D01*
X98981820Y-69045498D01*
X98871506Y-69104463D01*
X98774815Y-69183815D01*
X98695463Y-69280506D01*
X98636498Y-69390820D01*
X98600188Y-69510518D01*
X98587928Y-69635000D01*
X84369072Y-69635000D01*
X84369072Y-69050000D01*
X84356812Y-68925518D01*
X84320502Y-68805820D01*
X84261537Y-68695506D01*
X84182185Y-68598815D01*
X84085494Y-68519463D01*
X83975180Y-68460498D01*
X83855482Y-68424188D01*
X83731000Y-68411928D01*
X82131000Y-68411928D01*
X82006518Y-68424188D01*
X81886820Y-68460498D01*
X81776506Y-68519463D01*
X81679815Y-68598815D01*
X81600463Y-68695506D01*
X81541498Y-68805820D01*
X81505188Y-68925518D01*
X81492928Y-69050000D01*
X76418072Y-69050000D01*
X76418072Y-69000000D01*
X76405812Y-68875518D01*
X76369502Y-68755820D01*
X76310537Y-68645506D01*
X76231185Y-68548815D01*
X76134494Y-68469463D01*
X76024180Y-68410498D01*
X75943534Y-68386034D01*
X76027588Y-68310269D01*
X76201641Y-68076920D01*
X76326825Y-67814099D01*
X76371476Y-67666890D01*
X76250155Y-67437000D01*
X75057000Y-67437000D01*
X75057000Y-67457000D01*
X74803000Y-67457000D01*
X74803000Y-67437000D01*
X73609845Y-67437000D01*
X73488524Y-67666890D01*
X73533175Y-67814099D01*
X73658359Y-68076920D01*
X73832412Y-68310269D01*
X73916466Y-68386034D01*
X73835820Y-68410498D01*
X73725506Y-68469463D01*
X73628815Y-68548815D01*
X73549463Y-68645506D01*
X73490498Y-68755820D01*
X73454188Y-68875518D01*
X73441928Y-69000000D01*
X68453000Y-69000000D01*
X68453000Y-67342702D01*
X82117903Y-67342702D01*
X82189486Y-67586671D01*
X82444996Y-67707571D01*
X82719184Y-67776300D01*
X83001512Y-67790217D01*
X83281130Y-67748787D01*
X83547292Y-67653603D01*
X83669821Y-67588110D01*
X98634524Y-67588110D01*
X98755845Y-67818000D01*
X99949000Y-67818000D01*
X99949000Y-66624186D01*
X100203000Y-66624186D01*
X100203000Y-67818000D01*
X101396155Y-67818000D01*
X101517476Y-67588110D01*
X101472825Y-67440901D01*
X101347641Y-67178080D01*
X101173588Y-66944731D01*
X100957355Y-66749822D01*
X100707252Y-66600843D01*
X100432891Y-66503519D01*
X100203000Y-66624186D01*
X99949000Y-66624186D01*
X99719109Y-66503519D01*
X99444748Y-66600843D01*
X99194645Y-66749822D01*
X98978412Y-66944731D01*
X98804359Y-67178080D01*
X98679175Y-67440901D01*
X98634524Y-67588110D01*
X83669821Y-67588110D01*
X83672514Y-67586671D01*
X83744097Y-67342702D01*
X82931000Y-66529605D01*
X82117903Y-67342702D01*
X68453000Y-67342702D01*
X68453000Y-66953110D01*
X73488524Y-66953110D01*
X73609845Y-67183000D01*
X74803000Y-67183000D01*
X74803000Y-65989186D01*
X75057000Y-65989186D01*
X75057000Y-67183000D01*
X76250155Y-67183000D01*
X76371476Y-66953110D01*
X76326825Y-66805901D01*
X76201641Y-66543080D01*
X76110219Y-66420512D01*
X81490783Y-66420512D01*
X81532213Y-66700130D01*
X81627397Y-66966292D01*
X81694329Y-67091514D01*
X81938298Y-67163097D01*
X82751395Y-66350000D01*
X83110605Y-66350000D01*
X83923702Y-67163097D01*
X84167671Y-67091514D01*
X84288571Y-66836004D01*
X84357300Y-66561816D01*
X84371217Y-66279488D01*
X84329787Y-65999870D01*
X84234603Y-65733708D01*
X84167671Y-65608486D01*
X83923702Y-65536903D01*
X83110605Y-66350000D01*
X82751395Y-66350000D01*
X81938298Y-65536903D01*
X81694329Y-65608486D01*
X81573429Y-65863996D01*
X81504700Y-66138184D01*
X81490783Y-66420512D01*
X76110219Y-66420512D01*
X76027588Y-66309731D01*
X75811355Y-66114822D01*
X75561252Y-65965843D01*
X75286891Y-65868519D01*
X75057000Y-65989186D01*
X74803000Y-65989186D01*
X74573109Y-65868519D01*
X74298748Y-65965843D01*
X74048645Y-66114822D01*
X73832412Y-66309731D01*
X73658359Y-66543080D01*
X73533175Y-66805901D01*
X73488524Y-66953110D01*
X68453000Y-66953110D01*
X68453000Y-65357298D01*
X82117903Y-65357298D01*
X82931000Y-66170395D01*
X83744097Y-65357298D01*
X83672514Y-65113329D01*
X83417004Y-64992429D01*
X83142816Y-64923700D01*
X82860488Y-64909783D01*
X82580870Y-64951213D01*
X82314708Y-65046397D01*
X82189486Y-65113329D01*
X82117903Y-65357298D01*
X68453000Y-65357298D01*
X68453000Y-63993665D01*
X98641000Y-63993665D01*
X98641000Y-64276335D01*
X98696147Y-64553574D01*
X98804320Y-64814727D01*
X98961363Y-65049759D01*
X99161241Y-65249637D01*
X99396273Y-65406680D01*
X99657426Y-65514853D01*
X99934665Y-65570000D01*
X100217335Y-65570000D01*
X100494574Y-65514853D01*
X100755727Y-65406680D01*
X100990759Y-65249637D01*
X101190637Y-65049759D01*
X101347680Y-64814727D01*
X101455853Y-64553574D01*
X101511000Y-64276335D01*
X101511000Y-63993665D01*
X101455853Y-63716426D01*
X101347680Y-63455273D01*
X101190637Y-63220241D01*
X100990759Y-63020363D01*
X100790131Y-62886308D01*
X100817514Y-62871671D01*
X100889097Y-62627702D01*
X100076000Y-61814605D01*
X99262903Y-62627702D01*
X99334486Y-62871671D01*
X99363341Y-62885324D01*
X99161241Y-63020363D01*
X98961363Y-63220241D01*
X98804320Y-63455273D01*
X98696147Y-63716426D01*
X98641000Y-63993665D01*
X68453000Y-63993665D01*
X68453000Y-63881000D01*
X68450560Y-63856224D01*
X68443333Y-63832399D01*
X68431597Y-63810443D01*
X68415803Y-63791197D01*
X68396557Y-63775403D01*
X68374601Y-63763667D01*
X68350776Y-63756440D01*
X68326000Y-63754000D01*
X59817000Y-63754000D01*
X59792224Y-63756440D01*
X59768399Y-63763667D01*
X59746443Y-63775403D01*
X59727197Y-63791197D01*
X59711403Y-63810443D01*
X59699667Y-63832399D01*
X59692440Y-63856224D01*
X59690000Y-63881000D01*
X51485800Y-63881000D01*
X51485800Y-61705512D01*
X98635783Y-61705512D01*
X98677213Y-61985130D01*
X98772397Y-62251292D01*
X98839329Y-62376514D01*
X99083298Y-62448097D01*
X99896395Y-61635000D01*
X100255605Y-61635000D01*
X101068702Y-62448097D01*
X101312671Y-62376514D01*
X101433571Y-62121004D01*
X101502300Y-61846816D01*
X101516217Y-61564488D01*
X101474787Y-61284870D01*
X101379603Y-61018708D01*
X101312671Y-60893486D01*
X101068702Y-60821903D01*
X100255605Y-61635000D01*
X99896395Y-61635000D01*
X99083298Y-60821903D01*
X98839329Y-60893486D01*
X98718429Y-61148996D01*
X98649700Y-61423184D01*
X98635783Y-61705512D01*
X51485800Y-61705512D01*
X51485800Y-60039040D01*
X77094091Y-60039040D01*
X77188930Y-60303881D01*
X77333615Y-60545131D01*
X77522586Y-60753519D01*
X77748580Y-60921037D01*
X78002913Y-61041246D01*
X78136961Y-61081904D01*
X78359000Y-60959915D01*
X78359000Y-59817000D01*
X78613000Y-59817000D01*
X78613000Y-60959915D01*
X78835039Y-61081904D01*
X78969087Y-61041246D01*
X79223420Y-60921037D01*
X79449414Y-60753519D01*
X79638385Y-60545131D01*
X79783070Y-60303881D01*
X79877909Y-60039040D01*
X79756624Y-59817000D01*
X78613000Y-59817000D01*
X78359000Y-59817000D01*
X77215376Y-59817000D01*
X77094091Y-60039040D01*
X51485800Y-60039040D01*
X51485800Y-59340960D01*
X77094091Y-59340960D01*
X77215376Y-59563000D01*
X78359000Y-59563000D01*
X78359000Y-58420085D01*
X78613000Y-58420085D01*
X78613000Y-59563000D01*
X79756624Y-59563000D01*
X79877909Y-59340960D01*
X79783070Y-59076119D01*
X79671449Y-58890000D01*
X82635928Y-58890000D01*
X82635928Y-60490000D01*
X82648188Y-60614482D01*
X82684498Y-60734180D01*
X82743463Y-60844494D01*
X82822815Y-60941185D01*
X82919506Y-61020537D01*
X83029820Y-61079502D01*
X83149518Y-61115812D01*
X83274000Y-61128072D01*
X84874000Y-61128072D01*
X84998482Y-61115812D01*
X85118180Y-61079502D01*
X85228494Y-61020537D01*
X85325185Y-60941185D01*
X85404537Y-60844494D01*
X85463502Y-60734180D01*
X85499812Y-60614482D01*
X85500643Y-60606039D01*
X85699241Y-60804637D01*
X85934273Y-60961680D01*
X86195426Y-61069853D01*
X86472665Y-61125000D01*
X86755335Y-61125000D01*
X87032574Y-61069853D01*
X87293727Y-60961680D01*
X87528759Y-60804637D01*
X87728637Y-60604759D01*
X87884000Y-60372241D01*
X88039363Y-60604759D01*
X88239241Y-60804637D01*
X88474273Y-60961680D01*
X88735426Y-61069853D01*
X89012665Y-61125000D01*
X89295335Y-61125000D01*
X89572574Y-61069853D01*
X89833727Y-60961680D01*
X90068759Y-60804637D01*
X90268637Y-60604759D01*
X90425680Y-60369727D01*
X90430067Y-60359135D01*
X90541615Y-60545131D01*
X90730586Y-60753519D01*
X90956580Y-60921037D01*
X91210913Y-61041246D01*
X91344961Y-61081904D01*
X91567000Y-60959915D01*
X91567000Y-59817000D01*
X91821000Y-59817000D01*
X91821000Y-60959915D01*
X92043039Y-61081904D01*
X92177087Y-61041246D01*
X92431420Y-60921037D01*
X92657414Y-60753519D01*
X92846385Y-60545131D01*
X92991070Y-60303881D01*
X93085909Y-60039040D01*
X92964624Y-59817000D01*
X91821000Y-59817000D01*
X91567000Y-59817000D01*
X91547000Y-59817000D01*
X91547000Y-59563000D01*
X91567000Y-59563000D01*
X91567000Y-58420085D01*
X91821000Y-58420085D01*
X91821000Y-59563000D01*
X92964624Y-59563000D01*
X92972454Y-59548665D01*
X95339000Y-59548665D01*
X95339000Y-59831335D01*
X95394147Y-60108574D01*
X95502320Y-60369727D01*
X95659363Y-60604759D01*
X95859241Y-60804637D01*
X96094273Y-60961680D01*
X96355426Y-61069853D01*
X96632665Y-61125000D01*
X96915335Y-61125000D01*
X97192574Y-61069853D01*
X97453727Y-60961680D01*
X97688759Y-60804637D01*
X97851098Y-60642298D01*
X99262903Y-60642298D01*
X100076000Y-61455395D01*
X100889097Y-60642298D01*
X100817514Y-60398329D01*
X100562004Y-60277429D01*
X100287816Y-60208700D01*
X100005488Y-60194783D01*
X99725870Y-60236213D01*
X99459708Y-60331397D01*
X99334486Y-60398329D01*
X99262903Y-60642298D01*
X97851098Y-60642298D01*
X97888637Y-60604759D01*
X98045680Y-60369727D01*
X98153853Y-60108574D01*
X98166122Y-60046890D01*
X120732524Y-60046890D01*
X120777175Y-60194099D01*
X120902359Y-60456920D01*
X121076412Y-60690269D01*
X121292645Y-60885178D01*
X121542748Y-61034157D01*
X121817109Y-61131481D01*
X122047000Y-61010814D01*
X122047000Y-59817000D01*
X122301000Y-59817000D01*
X122301000Y-61010814D01*
X122530891Y-61131481D01*
X122805252Y-61034157D01*
X123055355Y-60885178D01*
X123271588Y-60690269D01*
X123445641Y-60456920D01*
X123570825Y-60194099D01*
X123615476Y-60046890D01*
X123494155Y-59817000D01*
X122301000Y-59817000D01*
X122047000Y-59817000D01*
X120853845Y-59817000D01*
X120732524Y-60046890D01*
X98166122Y-60046890D01*
X98209000Y-59831335D01*
X98209000Y-59548665D01*
X98153853Y-59271426D01*
X98045680Y-59010273D01*
X97888637Y-58775241D01*
X97688759Y-58575363D01*
X97453727Y-58418320D01*
X97192574Y-58310147D01*
X96915335Y-58255000D01*
X96632665Y-58255000D01*
X96355426Y-58310147D01*
X96094273Y-58418320D01*
X95859241Y-58575363D01*
X95659363Y-58775241D01*
X95502320Y-59010273D01*
X95394147Y-59271426D01*
X95339000Y-59548665D01*
X92972454Y-59548665D01*
X93085909Y-59340960D01*
X92991070Y-59076119D01*
X92846385Y-58834869D01*
X92657414Y-58626481D01*
X92431420Y-58458963D01*
X92177087Y-58338754D01*
X92043039Y-58298096D01*
X91821000Y-58420085D01*
X91567000Y-58420085D01*
X91344961Y-58298096D01*
X91210913Y-58338754D01*
X90956580Y-58458963D01*
X90730586Y-58626481D01*
X90541615Y-58834869D01*
X90430067Y-59020865D01*
X90425680Y-59010273D01*
X90268637Y-58775241D01*
X90068759Y-58575363D01*
X89833727Y-58418320D01*
X89572574Y-58310147D01*
X89295335Y-58255000D01*
X89012665Y-58255000D01*
X88735426Y-58310147D01*
X88474273Y-58418320D01*
X88239241Y-58575363D01*
X88039363Y-58775241D01*
X87884000Y-59007759D01*
X87728637Y-58775241D01*
X87528759Y-58575363D01*
X87293727Y-58418320D01*
X87032574Y-58310147D01*
X86755335Y-58255000D01*
X86472665Y-58255000D01*
X86195426Y-58310147D01*
X85934273Y-58418320D01*
X85699241Y-58575363D01*
X85500643Y-58773961D01*
X85499812Y-58765518D01*
X85463502Y-58645820D01*
X85404537Y-58535506D01*
X85325185Y-58438815D01*
X85228494Y-58359463D01*
X85118180Y-58300498D01*
X84998482Y-58264188D01*
X84874000Y-58251928D01*
X83274000Y-58251928D01*
X83149518Y-58264188D01*
X83029820Y-58300498D01*
X82919506Y-58359463D01*
X82822815Y-58438815D01*
X82743463Y-58535506D01*
X82684498Y-58645820D01*
X82648188Y-58765518D01*
X82635928Y-58890000D01*
X79671449Y-58890000D01*
X79638385Y-58834869D01*
X79449414Y-58626481D01*
X79223420Y-58458963D01*
X78969087Y-58338754D01*
X78835039Y-58298096D01*
X78613000Y-58420085D01*
X78359000Y-58420085D01*
X78136961Y-58298096D01*
X78002913Y-58338754D01*
X77748580Y-58458963D01*
X77522586Y-58626481D01*
X77333615Y-58834869D01*
X77188930Y-59076119D01*
X77094091Y-59340960D01*
X51485800Y-59340960D01*
X51485800Y-53760000D01*
X120685928Y-53760000D01*
X120685928Y-55460000D01*
X120698188Y-55584482D01*
X120734498Y-55704180D01*
X120793463Y-55814494D01*
X120872815Y-55911185D01*
X120969506Y-55990537D01*
X121079820Y-56049502D01*
X121152380Y-56071513D01*
X121020525Y-56203368D01*
X120858010Y-56446589D01*
X120746068Y-56716842D01*
X120689000Y-57003740D01*
X120689000Y-57296260D01*
X120746068Y-57583158D01*
X120858010Y-57853411D01*
X121020525Y-58096632D01*
X121227368Y-58303475D01*
X121409534Y-58425195D01*
X121292645Y-58494822D01*
X121076412Y-58689731D01*
X120902359Y-58923080D01*
X120777175Y-59185901D01*
X120732524Y-59333110D01*
X120853845Y-59563000D01*
X122047000Y-59563000D01*
X122047000Y-59543000D01*
X122301000Y-59543000D01*
X122301000Y-59563000D01*
X123494155Y-59563000D01*
X123615476Y-59333110D01*
X123570825Y-59185901D01*
X123445641Y-58923080D01*
X123271588Y-58689731D01*
X123055355Y-58494822D01*
X122938466Y-58425195D01*
X123120632Y-58303475D01*
X123327475Y-58096632D01*
X123489990Y-57853411D01*
X123601932Y-57583158D01*
X123659000Y-57296260D01*
X123659000Y-57003740D01*
X123601932Y-56716842D01*
X123489990Y-56446589D01*
X123327475Y-56203368D01*
X123195620Y-56071513D01*
X123268180Y-56049502D01*
X123378494Y-55990537D01*
X123475185Y-55911185D01*
X123554537Y-55814494D01*
X123613502Y-55704180D01*
X123649812Y-55584482D01*
X123662072Y-55460000D01*
X123662072Y-53760000D01*
X123649812Y-53635518D01*
X123613502Y-53515820D01*
X123554537Y-53405506D01*
X123475185Y-53308815D01*
X123378494Y-53229463D01*
X123268180Y-53170498D01*
X123148482Y-53134188D01*
X123024000Y-53121928D01*
X121324000Y-53121928D01*
X121199518Y-53134188D01*
X121079820Y-53170498D01*
X120969506Y-53229463D01*
X120872815Y-53308815D01*
X120793463Y-53405506D01*
X120734498Y-53515820D01*
X120698188Y-53635518D01*
X120685928Y-53760000D01*
X51485800Y-53760000D01*
X51485800Y-51928665D01*
X77051000Y-51928665D01*
X77051000Y-52211335D01*
X77106147Y-52488574D01*
X77214320Y-52749727D01*
X77371363Y-52984759D01*
X77571241Y-53184637D01*
X77806273Y-53341680D01*
X78067426Y-53449853D01*
X78344665Y-53505000D01*
X78627335Y-53505000D01*
X78904574Y-53449853D01*
X79165727Y-53341680D01*
X79400759Y-53184637D01*
X79600637Y-52984759D01*
X79757680Y-52749727D01*
X79865853Y-52488574D01*
X79921000Y-52211335D01*
X79921000Y-51928665D01*
X82639000Y-51928665D01*
X82639000Y-52211335D01*
X82694147Y-52488574D01*
X82802320Y-52749727D01*
X82959363Y-52984759D01*
X83159241Y-53184637D01*
X83394273Y-53341680D01*
X83655426Y-53449853D01*
X83932665Y-53505000D01*
X84215335Y-53505000D01*
X84492574Y-53449853D01*
X84753727Y-53341680D01*
X84988759Y-53184637D01*
X85188637Y-52984759D01*
X85344000Y-52752241D01*
X85499363Y-52984759D01*
X85699241Y-53184637D01*
X85934273Y-53341680D01*
X86195426Y-53449853D01*
X86472665Y-53505000D01*
X86755335Y-53505000D01*
X87032574Y-53449853D01*
X87293727Y-53341680D01*
X87528759Y-53184637D01*
X87728637Y-52984759D01*
X87884000Y-52752241D01*
X88039363Y-52984759D01*
X88239241Y-53184637D01*
X88474273Y-53341680D01*
X88735426Y-53449853D01*
X89012665Y-53505000D01*
X89295335Y-53505000D01*
X89572574Y-53449853D01*
X89833727Y-53341680D01*
X90068759Y-53184637D01*
X90268637Y-52984759D01*
X90424000Y-52752241D01*
X90579363Y-52984759D01*
X90779241Y-53184637D01*
X91014273Y-53341680D01*
X91275426Y-53449853D01*
X91552665Y-53505000D01*
X91835335Y-53505000D01*
X92112574Y-53449853D01*
X92373727Y-53341680D01*
X92608759Y-53184637D01*
X92808637Y-52984759D01*
X92965680Y-52749727D01*
X93073853Y-52488574D01*
X93129000Y-52211335D01*
X93129000Y-51928665D01*
X95339000Y-51928665D01*
X95339000Y-52211335D01*
X95394147Y-52488574D01*
X95502320Y-52749727D01*
X95659363Y-52984759D01*
X95859241Y-53184637D01*
X96094273Y-53341680D01*
X96355426Y-53449853D01*
X96632665Y-53505000D01*
X96915335Y-53505000D01*
X97192574Y-53449853D01*
X97453727Y-53341680D01*
X97688759Y-53184637D01*
X97888637Y-52984759D01*
X98045680Y-52749727D01*
X98153853Y-52488574D01*
X98209000Y-52211335D01*
X98209000Y-51928665D01*
X98153853Y-51651426D01*
X98045680Y-51390273D01*
X97888637Y-51155241D01*
X97688759Y-50955363D01*
X97453727Y-50798320D01*
X97192574Y-50690147D01*
X96915335Y-50635000D01*
X96632665Y-50635000D01*
X96355426Y-50690147D01*
X96094273Y-50798320D01*
X95859241Y-50955363D01*
X95659363Y-51155241D01*
X95502320Y-51390273D01*
X95394147Y-51651426D01*
X95339000Y-51928665D01*
X93129000Y-51928665D01*
X93073853Y-51651426D01*
X92965680Y-51390273D01*
X92808637Y-51155241D01*
X92608759Y-50955363D01*
X92373727Y-50798320D01*
X92112574Y-50690147D01*
X91835335Y-50635000D01*
X91552665Y-50635000D01*
X91275426Y-50690147D01*
X91014273Y-50798320D01*
X90779241Y-50955363D01*
X90579363Y-51155241D01*
X90424000Y-51387759D01*
X90268637Y-51155241D01*
X90068759Y-50955363D01*
X89833727Y-50798320D01*
X89572574Y-50690147D01*
X89295335Y-50635000D01*
X89012665Y-50635000D01*
X88735426Y-50690147D01*
X88474273Y-50798320D01*
X88239241Y-50955363D01*
X88039363Y-51155241D01*
X87884000Y-51387759D01*
X87728637Y-51155241D01*
X87528759Y-50955363D01*
X87293727Y-50798320D01*
X87032574Y-50690147D01*
X86755335Y-50635000D01*
X86472665Y-50635000D01*
X86195426Y-50690147D01*
X85934273Y-50798320D01*
X85699241Y-50955363D01*
X85499363Y-51155241D01*
X85344000Y-51387759D01*
X85188637Y-51155241D01*
X84988759Y-50955363D01*
X84753727Y-50798320D01*
X84492574Y-50690147D01*
X84215335Y-50635000D01*
X83932665Y-50635000D01*
X83655426Y-50690147D01*
X83394273Y-50798320D01*
X83159241Y-50955363D01*
X82959363Y-51155241D01*
X82802320Y-51390273D01*
X82694147Y-51651426D01*
X82639000Y-51928665D01*
X79921000Y-51928665D01*
X79865853Y-51651426D01*
X79757680Y-51390273D01*
X79600637Y-51155241D01*
X79400759Y-50955363D01*
X79165727Y-50798320D01*
X78904574Y-50690147D01*
X78627335Y-50635000D01*
X78344665Y-50635000D01*
X78067426Y-50690147D01*
X77806273Y-50798320D01*
X77571241Y-50955363D01*
X77371363Y-51155241D01*
X77214320Y-51390273D01*
X77106147Y-51651426D01*
X77051000Y-51928665D01*
X51485800Y-51928665D01*
X51485800Y-41816881D01*
X51834724Y-41816881D01*
X52194912Y-42306548D01*
X52858882Y-42666849D01*
X53580385Y-42890694D01*
X54331695Y-42969480D01*
X55083938Y-42900178D01*
X55808208Y-42685452D01*
X56476670Y-42333555D01*
X56517088Y-42306548D01*
X56877276Y-41816881D01*
X54356000Y-39295605D01*
X51834724Y-41816881D01*
X51485800Y-41816881D01*
X51485800Y-41512729D01*
X51655119Y-41637276D01*
X54176395Y-39116000D01*
X54535605Y-39116000D01*
X57056881Y-41637276D01*
X57546548Y-41277088D01*
X57906849Y-40613118D01*
X58130694Y-39891615D01*
X58209480Y-39140305D01*
X58172141Y-38735000D01*
X59563000Y-38735000D01*
X59563000Y-49022000D01*
X59565440Y-49046776D01*
X59572667Y-49070601D01*
X59584403Y-49092557D01*
X59600197Y-49111803D01*
X59619443Y-49127597D01*
X59641399Y-49139333D01*
X59665224Y-49146560D01*
X59690000Y-49149000D01*
X68072000Y-49149000D01*
X68096776Y-49146560D01*
X68120601Y-49139333D01*
X68142557Y-49127597D01*
X68161803Y-49111803D01*
X68177597Y-49092557D01*
X68189333Y-49070601D01*
X68196560Y-49046776D01*
X68199000Y-49022000D01*
X68199000Y-47518967D01*
X73676000Y-47518967D01*
X73676000Y-47841033D01*
X73738832Y-48156912D01*
X73862082Y-48454463D01*
X74041013Y-48722252D01*
X74268748Y-48949987D01*
X74536537Y-49128918D01*
X74834088Y-49252168D01*
X75149967Y-49315000D01*
X75472033Y-49315000D01*
X75787912Y-49252168D01*
X76085463Y-49128918D01*
X76353252Y-48949987D01*
X76580987Y-48722252D01*
X76759918Y-48454463D01*
X76883168Y-48156912D01*
X76946000Y-47841033D01*
X76946000Y-47518967D01*
X80176000Y-47518967D01*
X80176000Y-47841033D01*
X80238832Y-48156912D01*
X80362082Y-48454463D01*
X80541013Y-48722252D01*
X80768748Y-48949987D01*
X81036537Y-49128918D01*
X81334088Y-49252168D01*
X81649967Y-49315000D01*
X81972033Y-49315000D01*
X82287912Y-49252168D01*
X82585463Y-49128918D01*
X82853252Y-48949987D01*
X83080987Y-48722252D01*
X83259918Y-48454463D01*
X83383168Y-48156912D01*
X83446000Y-47841033D01*
X83446000Y-47518967D01*
X83383168Y-47203088D01*
X83259918Y-46905537D01*
X83080987Y-46637748D01*
X82853252Y-46410013D01*
X82585463Y-46231082D01*
X82287912Y-46107832D01*
X81972033Y-46045000D01*
X81649967Y-46045000D01*
X81334088Y-46107832D01*
X81036537Y-46231082D01*
X80768748Y-46410013D01*
X80541013Y-46637748D01*
X80362082Y-46905537D01*
X80238832Y-47203088D01*
X80176000Y-47518967D01*
X76946000Y-47518967D01*
X76883168Y-47203088D01*
X76759918Y-46905537D01*
X76580987Y-46637748D01*
X76353252Y-46410013D01*
X76085463Y-46231082D01*
X75787912Y-46107832D01*
X75472033Y-46045000D01*
X75149967Y-46045000D01*
X74834088Y-46107832D01*
X74536537Y-46231082D01*
X74268748Y-46410013D01*
X74041013Y-46637748D01*
X73862082Y-46905537D01*
X73738832Y-47203088D01*
X73676000Y-47518967D01*
X68199000Y-47518967D01*
X68199000Y-45505000D01*
X85252928Y-45505000D01*
X85252928Y-47205000D01*
X85265188Y-47329482D01*
X85301498Y-47449180D01*
X85360463Y-47559494D01*
X85439815Y-47656185D01*
X85536506Y-47735537D01*
X85646820Y-47794502D01*
X85766518Y-47830812D01*
X85891000Y-47843072D01*
X87591000Y-47843072D01*
X87715482Y-47830812D01*
X87835180Y-47794502D01*
X87945494Y-47735537D01*
X88042185Y-47656185D01*
X88121537Y-47559494D01*
X88180502Y-47449180D01*
X88202513Y-47376620D01*
X88334368Y-47508475D01*
X88577589Y-47670990D01*
X88847842Y-47782932D01*
X89134740Y-47840000D01*
X89427260Y-47840000D01*
X89714158Y-47782932D01*
X89984411Y-47670990D01*
X90227632Y-47508475D01*
X90434475Y-47301632D01*
X90551000Y-47127240D01*
X90667525Y-47301632D01*
X90874368Y-47508475D01*
X91117589Y-47670990D01*
X91387842Y-47782932D01*
X91674740Y-47840000D01*
X91967260Y-47840000D01*
X92254158Y-47782932D01*
X92524411Y-47670990D01*
X92767632Y-47508475D01*
X92974475Y-47301632D01*
X93136990Y-47058411D01*
X93248932Y-46788158D01*
X93306000Y-46501260D01*
X93306000Y-46208740D01*
X93248932Y-45921842D01*
X93136990Y-45651589D01*
X92974475Y-45408368D01*
X92767632Y-45201525D01*
X92591594Y-45083900D01*
X92821269Y-44912588D01*
X93016178Y-44696355D01*
X93165157Y-44446252D01*
X93262481Y-44171891D01*
X93141814Y-43942000D01*
X91948000Y-43942000D01*
X91948000Y-43962000D01*
X91694000Y-43962000D01*
X91694000Y-43942000D01*
X91674000Y-43942000D01*
X91674000Y-43688000D01*
X91694000Y-43688000D01*
X91694000Y-42494845D01*
X91948000Y-42494845D01*
X91948000Y-43688000D01*
X93141814Y-43688000D01*
X93262481Y-43458109D01*
X93165157Y-43183748D01*
X93016178Y-42933645D01*
X92821269Y-42717412D01*
X92587920Y-42543359D01*
X92325099Y-42418175D01*
X92177890Y-42373524D01*
X91948000Y-42494845D01*
X91694000Y-42494845D01*
X91464110Y-42373524D01*
X91316901Y-42418175D01*
X91054080Y-42543359D01*
X90820731Y-42717412D01*
X90625822Y-42933645D01*
X90556195Y-43050534D01*
X90434475Y-42868368D01*
X90227632Y-42661525D01*
X89984411Y-42499010D01*
X89714158Y-42387068D01*
X89427260Y-42330000D01*
X89134740Y-42330000D01*
X88847842Y-42387068D01*
X88577589Y-42499010D01*
X88334368Y-42661525D01*
X88127525Y-42868368D01*
X88011000Y-43042760D01*
X87894475Y-42868368D01*
X87687632Y-42661525D01*
X87444411Y-42499010D01*
X87174158Y-42387068D01*
X86887260Y-42330000D01*
X86594740Y-42330000D01*
X86307842Y-42387068D01*
X86037589Y-42499010D01*
X85794368Y-42661525D01*
X85587525Y-42868368D01*
X85425010Y-43111589D01*
X85313068Y-43381842D01*
X85256000Y-43668740D01*
X85256000Y-43961260D01*
X85313068Y-44248158D01*
X85425010Y-44518411D01*
X85587525Y-44761632D01*
X85719380Y-44893487D01*
X85646820Y-44915498D01*
X85536506Y-44974463D01*
X85439815Y-45053815D01*
X85360463Y-45150506D01*
X85301498Y-45260820D01*
X85265188Y-45380518D01*
X85252928Y-45505000D01*
X68199000Y-45505000D01*
X68199000Y-43018967D01*
X73676000Y-43018967D01*
X73676000Y-43341033D01*
X73738832Y-43656912D01*
X73862082Y-43954463D01*
X74041013Y-44222252D01*
X74268748Y-44449987D01*
X74536537Y-44628918D01*
X74834088Y-44752168D01*
X75149967Y-44815000D01*
X75472033Y-44815000D01*
X75787912Y-44752168D01*
X76085463Y-44628918D01*
X76353252Y-44449987D01*
X76580987Y-44222252D01*
X76759918Y-43954463D01*
X76883168Y-43656912D01*
X76946000Y-43341033D01*
X76946000Y-43018967D01*
X80176000Y-43018967D01*
X80176000Y-43341033D01*
X80238832Y-43656912D01*
X80362082Y-43954463D01*
X80541013Y-44222252D01*
X80768748Y-44449987D01*
X81036537Y-44628918D01*
X81334088Y-44752168D01*
X81649967Y-44815000D01*
X81972033Y-44815000D01*
X82287912Y-44752168D01*
X82585463Y-44628918D01*
X82853252Y-44449987D01*
X83080987Y-44222252D01*
X83259918Y-43954463D01*
X83383168Y-43656912D01*
X83446000Y-43341033D01*
X83446000Y-43018967D01*
X83383168Y-42703088D01*
X83259918Y-42405537D01*
X83080987Y-42137748D01*
X82853252Y-41910013D01*
X82713871Y-41816881D01*
X103269724Y-41816881D01*
X103629912Y-42306548D01*
X104293882Y-42666849D01*
X105015385Y-42890694D01*
X105766695Y-42969480D01*
X106518938Y-42900178D01*
X107243208Y-42685452D01*
X107911670Y-42333555D01*
X107952088Y-42306548D01*
X108312276Y-41816881D01*
X105791000Y-39295605D01*
X103269724Y-41816881D01*
X82713871Y-41816881D01*
X82585463Y-41731082D01*
X82287912Y-41607832D01*
X81972033Y-41545000D01*
X81649967Y-41545000D01*
X81334088Y-41607832D01*
X81036537Y-41731082D01*
X80768748Y-41910013D01*
X80541013Y-42137748D01*
X80362082Y-42405537D01*
X80238832Y-42703088D01*
X80176000Y-43018967D01*
X76946000Y-43018967D01*
X76883168Y-42703088D01*
X76759918Y-42405537D01*
X76580987Y-42137748D01*
X76353252Y-41910013D01*
X76085463Y-41731082D01*
X75787912Y-41607832D01*
X75472033Y-41545000D01*
X75149967Y-41545000D01*
X74834088Y-41607832D01*
X74536537Y-41731082D01*
X74268748Y-41910013D01*
X74041013Y-42137748D01*
X73862082Y-42405537D01*
X73738832Y-42703088D01*
X73676000Y-43018967D01*
X68199000Y-43018967D01*
X68199000Y-39091695D01*
X101937520Y-39091695D01*
X102006822Y-39843938D01*
X102221548Y-40568208D01*
X102573445Y-41236670D01*
X102600452Y-41277088D01*
X103090119Y-41637276D01*
X105611395Y-39116000D01*
X103090119Y-36594724D01*
X102600452Y-36954912D01*
X102240151Y-37618882D01*
X102016306Y-38340385D01*
X101937520Y-39091695D01*
X68199000Y-39091695D01*
X68199000Y-38735000D01*
X68196560Y-38710224D01*
X68189333Y-38686399D01*
X68177597Y-38664443D01*
X68161803Y-38645197D01*
X68142557Y-38629403D01*
X68120601Y-38617667D01*
X68096776Y-38610440D01*
X68072000Y-38608000D01*
X59690000Y-38608000D01*
X59665224Y-38610440D01*
X59641399Y-38617667D01*
X59619443Y-38629403D01*
X59600197Y-38645197D01*
X59584403Y-38664443D01*
X59572667Y-38686399D01*
X59565440Y-38710224D01*
X59563000Y-38735000D01*
X58172141Y-38735000D01*
X58140178Y-38388062D01*
X57925452Y-37663792D01*
X57573555Y-36995330D01*
X57546548Y-36954912D01*
X57056881Y-36594724D01*
X54535605Y-39116000D01*
X54176395Y-39116000D01*
X51655119Y-36594724D01*
X51485800Y-36719271D01*
X51485800Y-36245800D01*
X51959271Y-36245800D01*
X51834724Y-36415119D01*
G37*
X51834724Y-36415119D02*
X54356000Y-38936395D01*
X56877276Y-36415119D01*
X56752729Y-36245800D01*
X103394271Y-36245800D01*
X103269724Y-36415119D01*
X105791000Y-38936395D01*
X105805143Y-38922253D01*
X105984748Y-39101858D01*
X105970605Y-39116000D01*
X108491881Y-41637276D01*
X108981548Y-41277088D01*
X109125351Y-41012086D01*
X109351679Y-41430673D01*
X109386416Y-41482172D01*
X109420472Y-41534215D01*
X109426524Y-41541636D01*
X109868903Y-42076379D01*
X109913006Y-42120176D01*
X109956498Y-42164588D01*
X109963870Y-42170686D01*
X109963875Y-42170691D01*
X109963880Y-42170695D01*
X110501694Y-42609325D01*
X110553469Y-42643724D01*
X110604753Y-42678839D01*
X110613176Y-42683393D01*
X111225951Y-43009212D01*
X111283444Y-43032909D01*
X111340549Y-43057384D01*
X111349696Y-43060216D01*
X112014085Y-43260807D01*
X112075048Y-43272878D01*
X112135858Y-43285803D01*
X112145381Y-43286804D01*
X112836078Y-43354527D01*
X112836079Y-43354527D01*
X112869311Y-43357800D01*
X120870459Y-43357800D01*
X121460851Y-43415688D01*
X121996497Y-43577409D01*
X122490526Y-43840090D01*
X122924123Y-44193723D01*
X123280778Y-44624844D01*
X123546899Y-45117026D01*
X123712356Y-45651530D01*
X123774200Y-46239942D01*
X123774201Y-65498449D01*
X123716312Y-66088851D01*
X123554591Y-66624497D01*
X123291911Y-67118525D01*
X122938279Y-67552121D01*
X122507156Y-67908777D01*
X122014977Y-68174898D01*
X121480470Y-68340356D01*
X120892058Y-68402200D01*
X112869311Y-68402200D01*
X112838194Y-68405265D01*
X112816020Y-68405110D01*
X112806490Y-68406044D01*
X112116282Y-68478587D01*
X112055415Y-68491081D01*
X111994336Y-68502733D01*
X111985169Y-68505500D01*
X111322198Y-68710725D01*
X111264883Y-68734818D01*
X111207268Y-68758096D01*
X111198813Y-68762591D01*
X110588328Y-69092679D01*
X110536819Y-69127422D01*
X110484785Y-69161473D01*
X110477364Y-69167524D01*
X109942620Y-69609903D01*
X109898838Y-69653992D01*
X109854412Y-69697498D01*
X109848309Y-69704876D01*
X109409675Y-70242695D01*
X109375293Y-70294443D01*
X109340161Y-70345753D01*
X109335607Y-70354176D01*
X109126519Y-70747413D01*
X109008555Y-70523330D01*
X108981548Y-70482912D01*
X108491881Y-70122724D01*
X105970605Y-72644000D01*
X105984748Y-72658143D01*
X105805143Y-72837748D01*
X105791000Y-72823605D01*
X103269724Y-75344881D01*
X103394271Y-75514200D01*
X56752729Y-75514200D01*
X56877276Y-75344881D01*
X54356000Y-72823605D01*
X51834724Y-75344881D01*
X51959271Y-75514200D01*
X51485800Y-75514200D01*
X51485800Y-75040729D01*
X51655119Y-75165276D01*
X54176395Y-72644000D01*
X54535605Y-72644000D01*
X57056881Y-75165276D01*
X57546548Y-74805088D01*
X57906849Y-74141118D01*
X58130694Y-73419615D01*
X58209480Y-72668305D01*
X58140178Y-71916062D01*
X57925452Y-71191792D01*
X57573555Y-70523330D01*
X57546548Y-70482912D01*
X57056881Y-70122724D01*
X54535605Y-72644000D01*
X54176395Y-72644000D01*
X51655119Y-70122724D01*
X51485800Y-70247271D01*
X51485800Y-69943119D01*
X51834724Y-69943119D01*
X54356000Y-72464395D01*
X56877276Y-69943119D01*
X56517088Y-69453452D01*
X55853118Y-69093151D01*
X55131615Y-68869306D01*
X54380305Y-68790520D01*
X53628062Y-68859822D01*
X52903792Y-69074548D01*
X52235330Y-69426445D01*
X52194912Y-69453452D01*
X51834724Y-69943119D01*
X51485800Y-69943119D01*
X51485800Y-63881000D01*
X59690000Y-63881000D01*
X59690000Y-74168000D01*
X59692440Y-74192776D01*
X59699667Y-74216601D01*
X59711403Y-74238557D01*
X59727197Y-74257803D01*
X59746443Y-74273597D01*
X59768399Y-74285333D01*
X59792224Y-74292560D01*
X59817000Y-74295000D01*
X68326000Y-74295000D01*
X68350776Y-74292560D01*
X68374601Y-74285333D01*
X68396557Y-74273597D01*
X68415803Y-74257803D01*
X68431597Y-74238557D01*
X68443333Y-74216601D01*
X68450560Y-74192776D01*
X68453000Y-74168000D01*
X68453000Y-72619695D01*
X101937520Y-72619695D01*
X102006822Y-73371938D01*
X102221548Y-74096208D01*
X102573445Y-74764670D01*
X102600452Y-74805088D01*
X103090119Y-75165276D01*
X105611395Y-72644000D01*
X103090119Y-70122724D01*
X102600452Y-70482912D01*
X102240151Y-71146882D01*
X102016306Y-71868385D01*
X101937520Y-72619695D01*
X68453000Y-72619695D01*
X68453000Y-69000000D01*
X73441928Y-69000000D01*
X73441928Y-70700000D01*
X73454188Y-70824482D01*
X73490498Y-70944180D01*
X73549463Y-71054494D01*
X73628815Y-71151185D01*
X73725506Y-71230537D01*
X73835820Y-71289502D01*
X73955518Y-71325812D01*
X74080000Y-71338072D01*
X75780000Y-71338072D01*
X75904482Y-71325812D01*
X76024180Y-71289502D01*
X76134494Y-71230537D01*
X76231185Y-71151185D01*
X76310537Y-71054494D01*
X76369502Y-70944180D01*
X76405812Y-70824482D01*
X76418072Y-70700000D01*
X76418072Y-69050000D01*
X81492928Y-69050000D01*
X81492928Y-70650000D01*
X81505188Y-70774482D01*
X81541498Y-70894180D01*
X81600463Y-71004494D01*
X81679815Y-71101185D01*
X81776506Y-71180537D01*
X81886820Y-71239502D01*
X82006518Y-71275812D01*
X82131000Y-71288072D01*
X83731000Y-71288072D01*
X83855482Y-71275812D01*
X83975180Y-71239502D01*
X84085494Y-71180537D01*
X84182185Y-71101185D01*
X84261537Y-71004494D01*
X84320502Y-70894180D01*
X84356812Y-70774482D01*
X84369072Y-70650000D01*
X84369072Y-69635000D01*
X98587928Y-69635000D01*
X98587928Y-71335000D01*
X98600188Y-71459482D01*
X98636498Y-71579180D01*
X98695463Y-71689494D01*
X98774815Y-71786185D01*
X98871506Y-71865537D01*
X98981820Y-71924502D01*
X99101518Y-71960812D01*
X99226000Y-71973072D01*
X100926000Y-71973072D01*
X101050482Y-71960812D01*
X101170180Y-71924502D01*
X101280494Y-71865537D01*
X101377185Y-71786185D01*
X101456537Y-71689494D01*
X101515502Y-71579180D01*
X101551812Y-71459482D01*
X101564072Y-71335000D01*
X101564072Y-69943119D01*
X103269724Y-69943119D01*
X105791000Y-72464395D01*
X108312276Y-69943119D01*
X107952088Y-69453452D01*
X107288118Y-69093151D01*
X106566615Y-68869306D01*
X105815305Y-68790520D01*
X105063062Y-68859822D01*
X104338792Y-69074548D01*
X103670330Y-69426445D01*
X103629912Y-69453452D01*
X103269724Y-69943119D01*
X101564072Y-69943119D01*
X101564072Y-69635000D01*
X101551812Y-69510518D01*
X101515502Y-69390820D01*
X101456537Y-69280506D01*
X101377185Y-69183815D01*
X101280494Y-69104463D01*
X101170180Y-69045498D01*
X101089534Y-69021034D01*
X101173588Y-68945269D01*
X101347641Y-68711920D01*
X101472825Y-68449099D01*
X101517476Y-68301890D01*
X101396155Y-68072000D01*
X100203000Y-68072000D01*
X100203000Y-68092000D01*
X99949000Y-68092000D01*
X99949000Y-68072000D01*
X98755845Y-68072000D01*
X98634524Y-68301890D01*
X98679175Y-68449099D01*
X98804359Y-68711920D01*
X98978412Y-68945269D01*
X99062466Y-69021034D01*
X98981820Y-69045498D01*
X98871506Y-69104463D01*
X98774815Y-69183815D01*
X98695463Y-69280506D01*
X98636498Y-69390820D01*
X98600188Y-69510518D01*
X98587928Y-69635000D01*
X84369072Y-69635000D01*
X84369072Y-69050000D01*
X84356812Y-68925518D01*
X84320502Y-68805820D01*
X84261537Y-68695506D01*
X84182185Y-68598815D01*
X84085494Y-68519463D01*
X83975180Y-68460498D01*
X83855482Y-68424188D01*
X83731000Y-68411928D01*
X82131000Y-68411928D01*
X82006518Y-68424188D01*
X81886820Y-68460498D01*
X81776506Y-68519463D01*
X81679815Y-68598815D01*
X81600463Y-68695506D01*
X81541498Y-68805820D01*
X81505188Y-68925518D01*
X81492928Y-69050000D01*
X76418072Y-69050000D01*
X76418072Y-69000000D01*
X76405812Y-68875518D01*
X76369502Y-68755820D01*
X76310537Y-68645506D01*
X76231185Y-68548815D01*
X76134494Y-68469463D01*
X76024180Y-68410498D01*
X75943534Y-68386034D01*
X76027588Y-68310269D01*
X76201641Y-68076920D01*
X76326825Y-67814099D01*
X76371476Y-67666890D01*
X76250155Y-67437000D01*
X75057000Y-67437000D01*
X75057000Y-67457000D01*
X74803000Y-67457000D01*
X74803000Y-67437000D01*
X73609845Y-67437000D01*
X73488524Y-67666890D01*
X73533175Y-67814099D01*
X73658359Y-68076920D01*
X73832412Y-68310269D01*
X73916466Y-68386034D01*
X73835820Y-68410498D01*
X73725506Y-68469463D01*
X73628815Y-68548815D01*
X73549463Y-68645506D01*
X73490498Y-68755820D01*
X73454188Y-68875518D01*
X73441928Y-69000000D01*
X68453000Y-69000000D01*
X68453000Y-67342702D01*
X82117903Y-67342702D01*
X82189486Y-67586671D01*
X82444996Y-67707571D01*
X82719184Y-67776300D01*
X83001512Y-67790217D01*
X83281130Y-67748787D01*
X83547292Y-67653603D01*
X83669821Y-67588110D01*
X98634524Y-67588110D01*
X98755845Y-67818000D01*
X99949000Y-67818000D01*
X99949000Y-66624186D01*
X100203000Y-66624186D01*
X100203000Y-67818000D01*
X101396155Y-67818000D01*
X101517476Y-67588110D01*
X101472825Y-67440901D01*
X101347641Y-67178080D01*
X101173588Y-66944731D01*
X100957355Y-66749822D01*
X100707252Y-66600843D01*
X100432891Y-66503519D01*
X100203000Y-66624186D01*
X99949000Y-66624186D01*
X99719109Y-66503519D01*
X99444748Y-66600843D01*
X99194645Y-66749822D01*
X98978412Y-66944731D01*
X98804359Y-67178080D01*
X98679175Y-67440901D01*
X98634524Y-67588110D01*
X83669821Y-67588110D01*
X83672514Y-67586671D01*
X83744097Y-67342702D01*
X82931000Y-66529605D01*
X82117903Y-67342702D01*
X68453000Y-67342702D01*
X68453000Y-66953110D01*
X73488524Y-66953110D01*
X73609845Y-67183000D01*
X74803000Y-67183000D01*
X74803000Y-65989186D01*
X75057000Y-65989186D01*
X75057000Y-67183000D01*
X76250155Y-67183000D01*
X76371476Y-66953110D01*
X76326825Y-66805901D01*
X76201641Y-66543080D01*
X76110219Y-66420512D01*
X81490783Y-66420512D01*
X81532213Y-66700130D01*
X81627397Y-66966292D01*
X81694329Y-67091514D01*
X81938298Y-67163097D01*
X82751395Y-66350000D01*
X83110605Y-66350000D01*
X83923702Y-67163097D01*
X84167671Y-67091514D01*
X84288571Y-66836004D01*
X84357300Y-66561816D01*
X84371217Y-66279488D01*
X84329787Y-65999870D01*
X84234603Y-65733708D01*
X84167671Y-65608486D01*
X83923702Y-65536903D01*
X83110605Y-66350000D01*
X82751395Y-66350000D01*
X81938298Y-65536903D01*
X81694329Y-65608486D01*
X81573429Y-65863996D01*
X81504700Y-66138184D01*
X81490783Y-66420512D01*
X76110219Y-66420512D01*
X76027588Y-66309731D01*
X75811355Y-66114822D01*
X75561252Y-65965843D01*
X75286891Y-65868519D01*
X75057000Y-65989186D01*
X74803000Y-65989186D01*
X74573109Y-65868519D01*
X74298748Y-65965843D01*
X74048645Y-66114822D01*
X73832412Y-66309731D01*
X73658359Y-66543080D01*
X73533175Y-66805901D01*
X73488524Y-66953110D01*
X68453000Y-66953110D01*
X68453000Y-65357298D01*
X82117903Y-65357298D01*
X82931000Y-66170395D01*
X83744097Y-65357298D01*
X83672514Y-65113329D01*
X83417004Y-64992429D01*
X83142816Y-64923700D01*
X82860488Y-64909783D01*
X82580870Y-64951213D01*
X82314708Y-65046397D01*
X82189486Y-65113329D01*
X82117903Y-65357298D01*
X68453000Y-65357298D01*
X68453000Y-63993665D01*
X98641000Y-63993665D01*
X98641000Y-64276335D01*
X98696147Y-64553574D01*
X98804320Y-64814727D01*
X98961363Y-65049759D01*
X99161241Y-65249637D01*
X99396273Y-65406680D01*
X99657426Y-65514853D01*
X99934665Y-65570000D01*
X100217335Y-65570000D01*
X100494574Y-65514853D01*
X100755727Y-65406680D01*
X100990759Y-65249637D01*
X101190637Y-65049759D01*
X101347680Y-64814727D01*
X101455853Y-64553574D01*
X101511000Y-64276335D01*
X101511000Y-63993665D01*
X101455853Y-63716426D01*
X101347680Y-63455273D01*
X101190637Y-63220241D01*
X100990759Y-63020363D01*
X100790131Y-62886308D01*
X100817514Y-62871671D01*
X100889097Y-62627702D01*
X100076000Y-61814605D01*
X99262903Y-62627702D01*
X99334486Y-62871671D01*
X99363341Y-62885324D01*
X99161241Y-63020363D01*
X98961363Y-63220241D01*
X98804320Y-63455273D01*
X98696147Y-63716426D01*
X98641000Y-63993665D01*
X68453000Y-63993665D01*
X68453000Y-63881000D01*
X68450560Y-63856224D01*
X68443333Y-63832399D01*
X68431597Y-63810443D01*
X68415803Y-63791197D01*
X68396557Y-63775403D01*
X68374601Y-63763667D01*
X68350776Y-63756440D01*
X68326000Y-63754000D01*
X59817000Y-63754000D01*
X59792224Y-63756440D01*
X59768399Y-63763667D01*
X59746443Y-63775403D01*
X59727197Y-63791197D01*
X59711403Y-63810443D01*
X59699667Y-63832399D01*
X59692440Y-63856224D01*
X59690000Y-63881000D01*
X51485800Y-63881000D01*
X51485800Y-61705512D01*
X98635783Y-61705512D01*
X98677213Y-61985130D01*
X98772397Y-62251292D01*
X98839329Y-62376514D01*
X99083298Y-62448097D01*
X99896395Y-61635000D01*
X100255605Y-61635000D01*
X101068702Y-62448097D01*
X101312671Y-62376514D01*
X101433571Y-62121004D01*
X101502300Y-61846816D01*
X101516217Y-61564488D01*
X101474787Y-61284870D01*
X101379603Y-61018708D01*
X101312671Y-60893486D01*
X101068702Y-60821903D01*
X100255605Y-61635000D01*
X99896395Y-61635000D01*
X99083298Y-60821903D01*
X98839329Y-60893486D01*
X98718429Y-61148996D01*
X98649700Y-61423184D01*
X98635783Y-61705512D01*
X51485800Y-61705512D01*
X51485800Y-60039040D01*
X77094091Y-60039040D01*
X77188930Y-60303881D01*
X77333615Y-60545131D01*
X77522586Y-60753519D01*
X77748580Y-60921037D01*
X78002913Y-61041246D01*
X78136961Y-61081904D01*
X78359000Y-60959915D01*
X78359000Y-59817000D01*
X78613000Y-59817000D01*
X78613000Y-60959915D01*
X78835039Y-61081904D01*
X78969087Y-61041246D01*
X79223420Y-60921037D01*
X79449414Y-60753519D01*
X79638385Y-60545131D01*
X79783070Y-60303881D01*
X79877909Y-60039040D01*
X79756624Y-59817000D01*
X78613000Y-59817000D01*
X78359000Y-59817000D01*
X77215376Y-59817000D01*
X77094091Y-60039040D01*
X51485800Y-60039040D01*
X51485800Y-59340960D01*
X77094091Y-59340960D01*
X77215376Y-59563000D01*
X78359000Y-59563000D01*
X78359000Y-58420085D01*
X78613000Y-58420085D01*
X78613000Y-59563000D01*
X79756624Y-59563000D01*
X79877909Y-59340960D01*
X79783070Y-59076119D01*
X79671449Y-58890000D01*
X82635928Y-58890000D01*
X82635928Y-60490000D01*
X82648188Y-60614482D01*
X82684498Y-60734180D01*
X82743463Y-60844494D01*
X82822815Y-60941185D01*
X82919506Y-61020537D01*
X83029820Y-61079502D01*
X83149518Y-61115812D01*
X83274000Y-61128072D01*
X84874000Y-61128072D01*
X84998482Y-61115812D01*
X85118180Y-61079502D01*
X85228494Y-61020537D01*
X85325185Y-60941185D01*
X85404537Y-60844494D01*
X85463502Y-60734180D01*
X85499812Y-60614482D01*
X85500643Y-60606039D01*
X85699241Y-60804637D01*
X85934273Y-60961680D01*
X86195426Y-61069853D01*
X86472665Y-61125000D01*
X86755335Y-61125000D01*
X87032574Y-61069853D01*
X87293727Y-60961680D01*
X87528759Y-60804637D01*
X87728637Y-60604759D01*
X87884000Y-60372241D01*
X88039363Y-60604759D01*
X88239241Y-60804637D01*
X88474273Y-60961680D01*
X88735426Y-61069853D01*
X89012665Y-61125000D01*
X89295335Y-61125000D01*
X89572574Y-61069853D01*
X89833727Y-60961680D01*
X90068759Y-60804637D01*
X90268637Y-60604759D01*
X90425680Y-60369727D01*
X90430067Y-60359135D01*
X90541615Y-60545131D01*
X90730586Y-60753519D01*
X90956580Y-60921037D01*
X91210913Y-61041246D01*
X91344961Y-61081904D01*
X91567000Y-60959915D01*
X91567000Y-59817000D01*
X91821000Y-59817000D01*
X91821000Y-60959915D01*
X92043039Y-61081904D01*
X92177087Y-61041246D01*
X92431420Y-60921037D01*
X92657414Y-60753519D01*
X92846385Y-60545131D01*
X92991070Y-60303881D01*
X93085909Y-60039040D01*
X92964624Y-59817000D01*
X91821000Y-59817000D01*
X91567000Y-59817000D01*
X91547000Y-59817000D01*
X91547000Y-59563000D01*
X91567000Y-59563000D01*
X91567000Y-58420085D01*
X91821000Y-58420085D01*
X91821000Y-59563000D01*
X92964624Y-59563000D01*
X92972454Y-59548665D01*
X95339000Y-59548665D01*
X95339000Y-59831335D01*
X95394147Y-60108574D01*
X95502320Y-60369727D01*
X95659363Y-60604759D01*
X95859241Y-60804637D01*
X96094273Y-60961680D01*
X96355426Y-61069853D01*
X96632665Y-61125000D01*
X96915335Y-61125000D01*
X97192574Y-61069853D01*
X97453727Y-60961680D01*
X97688759Y-60804637D01*
X97851098Y-60642298D01*
X99262903Y-60642298D01*
X100076000Y-61455395D01*
X100889097Y-60642298D01*
X100817514Y-60398329D01*
X100562004Y-60277429D01*
X100287816Y-60208700D01*
X100005488Y-60194783D01*
X99725870Y-60236213D01*
X99459708Y-60331397D01*
X99334486Y-60398329D01*
X99262903Y-60642298D01*
X97851098Y-60642298D01*
X97888637Y-60604759D01*
X98045680Y-60369727D01*
X98153853Y-60108574D01*
X98166122Y-60046890D01*
X120732524Y-60046890D01*
X120777175Y-60194099D01*
X120902359Y-60456920D01*
X121076412Y-60690269D01*
X121292645Y-60885178D01*
X121542748Y-61034157D01*
X121817109Y-61131481D01*
X122047000Y-61010814D01*
X122047000Y-59817000D01*
X122301000Y-59817000D01*
X122301000Y-61010814D01*
X122530891Y-61131481D01*
X122805252Y-61034157D01*
X123055355Y-60885178D01*
X123271588Y-60690269D01*
X123445641Y-60456920D01*
X123570825Y-60194099D01*
X123615476Y-60046890D01*
X123494155Y-59817000D01*
X122301000Y-59817000D01*
X122047000Y-59817000D01*
X120853845Y-59817000D01*
X120732524Y-60046890D01*
X98166122Y-60046890D01*
X98209000Y-59831335D01*
X98209000Y-59548665D01*
X98153853Y-59271426D01*
X98045680Y-59010273D01*
X97888637Y-58775241D01*
X97688759Y-58575363D01*
X97453727Y-58418320D01*
X97192574Y-58310147D01*
X96915335Y-58255000D01*
X96632665Y-58255000D01*
X96355426Y-58310147D01*
X96094273Y-58418320D01*
X95859241Y-58575363D01*
X95659363Y-58775241D01*
X95502320Y-59010273D01*
X95394147Y-59271426D01*
X95339000Y-59548665D01*
X92972454Y-59548665D01*
X93085909Y-59340960D01*
X92991070Y-59076119D01*
X92846385Y-58834869D01*
X92657414Y-58626481D01*
X92431420Y-58458963D01*
X92177087Y-58338754D01*
X92043039Y-58298096D01*
X91821000Y-58420085D01*
X91567000Y-58420085D01*
X91344961Y-58298096D01*
X91210913Y-58338754D01*
X90956580Y-58458963D01*
X90730586Y-58626481D01*
X90541615Y-58834869D01*
X90430067Y-59020865D01*
X90425680Y-59010273D01*
X90268637Y-58775241D01*
X90068759Y-58575363D01*
X89833727Y-58418320D01*
X89572574Y-58310147D01*
X89295335Y-58255000D01*
X89012665Y-58255000D01*
X88735426Y-58310147D01*
X88474273Y-58418320D01*
X88239241Y-58575363D01*
X88039363Y-58775241D01*
X87884000Y-59007759D01*
X87728637Y-58775241D01*
X87528759Y-58575363D01*
X87293727Y-58418320D01*
X87032574Y-58310147D01*
X86755335Y-58255000D01*
X86472665Y-58255000D01*
X86195426Y-58310147D01*
X85934273Y-58418320D01*
X85699241Y-58575363D01*
X85500643Y-58773961D01*
X85499812Y-58765518D01*
X85463502Y-58645820D01*
X85404537Y-58535506D01*
X85325185Y-58438815D01*
X85228494Y-58359463D01*
X85118180Y-58300498D01*
X84998482Y-58264188D01*
X84874000Y-58251928D01*
X83274000Y-58251928D01*
X83149518Y-58264188D01*
X83029820Y-58300498D01*
X82919506Y-58359463D01*
X82822815Y-58438815D01*
X82743463Y-58535506D01*
X82684498Y-58645820D01*
X82648188Y-58765518D01*
X82635928Y-58890000D01*
X79671449Y-58890000D01*
X79638385Y-58834869D01*
X79449414Y-58626481D01*
X79223420Y-58458963D01*
X78969087Y-58338754D01*
X78835039Y-58298096D01*
X78613000Y-58420085D01*
X78359000Y-58420085D01*
X78136961Y-58298096D01*
X78002913Y-58338754D01*
X77748580Y-58458963D01*
X77522586Y-58626481D01*
X77333615Y-58834869D01*
X77188930Y-59076119D01*
X77094091Y-59340960D01*
X51485800Y-59340960D01*
X51485800Y-53760000D01*
X120685928Y-53760000D01*
X120685928Y-55460000D01*
X120698188Y-55584482D01*
X120734498Y-55704180D01*
X120793463Y-55814494D01*
X120872815Y-55911185D01*
X120969506Y-55990537D01*
X121079820Y-56049502D01*
X121152380Y-56071513D01*
X121020525Y-56203368D01*
X120858010Y-56446589D01*
X120746068Y-56716842D01*
X120689000Y-57003740D01*
X120689000Y-57296260D01*
X120746068Y-57583158D01*
X120858010Y-57853411D01*
X121020525Y-58096632D01*
X121227368Y-58303475D01*
X121409534Y-58425195D01*
X121292645Y-58494822D01*
X121076412Y-58689731D01*
X120902359Y-58923080D01*
X120777175Y-59185901D01*
X120732524Y-59333110D01*
X120853845Y-59563000D01*
X122047000Y-59563000D01*
X122047000Y-59543000D01*
X122301000Y-59543000D01*
X122301000Y-59563000D01*
X123494155Y-59563000D01*
X123615476Y-59333110D01*
X123570825Y-59185901D01*
X123445641Y-58923080D01*
X123271588Y-58689731D01*
X123055355Y-58494822D01*
X122938466Y-58425195D01*
X123120632Y-58303475D01*
X123327475Y-58096632D01*
X123489990Y-57853411D01*
X123601932Y-57583158D01*
X123659000Y-57296260D01*
X123659000Y-57003740D01*
X123601932Y-56716842D01*
X123489990Y-56446589D01*
X123327475Y-56203368D01*
X123195620Y-56071513D01*
X123268180Y-56049502D01*
X123378494Y-55990537D01*
X123475185Y-55911185D01*
X123554537Y-55814494D01*
X123613502Y-55704180D01*
X123649812Y-55584482D01*
X123662072Y-55460000D01*
X123662072Y-53760000D01*
X123649812Y-53635518D01*
X123613502Y-53515820D01*
X123554537Y-53405506D01*
X123475185Y-53308815D01*
X123378494Y-53229463D01*
X123268180Y-53170498D01*
X123148482Y-53134188D01*
X123024000Y-53121928D01*
X121324000Y-53121928D01*
X121199518Y-53134188D01*
X121079820Y-53170498D01*
X120969506Y-53229463D01*
X120872815Y-53308815D01*
X120793463Y-53405506D01*
X120734498Y-53515820D01*
X120698188Y-53635518D01*
X120685928Y-53760000D01*
X51485800Y-53760000D01*
X51485800Y-51928665D01*
X77051000Y-51928665D01*
X77051000Y-52211335D01*
X77106147Y-52488574D01*
X77214320Y-52749727D01*
X77371363Y-52984759D01*
X77571241Y-53184637D01*
X77806273Y-53341680D01*
X78067426Y-53449853D01*
X78344665Y-53505000D01*
X78627335Y-53505000D01*
X78904574Y-53449853D01*
X79165727Y-53341680D01*
X79400759Y-53184637D01*
X79600637Y-52984759D01*
X79757680Y-52749727D01*
X79865853Y-52488574D01*
X79921000Y-52211335D01*
X79921000Y-51928665D01*
X82639000Y-51928665D01*
X82639000Y-52211335D01*
X82694147Y-52488574D01*
X82802320Y-52749727D01*
X82959363Y-52984759D01*
X83159241Y-53184637D01*
X83394273Y-53341680D01*
X83655426Y-53449853D01*
X83932665Y-53505000D01*
X84215335Y-53505000D01*
X84492574Y-53449853D01*
X84753727Y-53341680D01*
X84988759Y-53184637D01*
X85188637Y-52984759D01*
X85344000Y-52752241D01*
X85499363Y-52984759D01*
X85699241Y-53184637D01*
X85934273Y-53341680D01*
X86195426Y-53449853D01*
X86472665Y-53505000D01*
X86755335Y-53505000D01*
X87032574Y-53449853D01*
X87293727Y-53341680D01*
X87528759Y-53184637D01*
X87728637Y-52984759D01*
X87884000Y-52752241D01*
X88039363Y-52984759D01*
X88239241Y-53184637D01*
X88474273Y-53341680D01*
X88735426Y-53449853D01*
X89012665Y-53505000D01*
X89295335Y-53505000D01*
X89572574Y-53449853D01*
X89833727Y-53341680D01*
X90068759Y-53184637D01*
X90268637Y-52984759D01*
X90424000Y-52752241D01*
X90579363Y-52984759D01*
X90779241Y-53184637D01*
X91014273Y-53341680D01*
X91275426Y-53449853D01*
X91552665Y-53505000D01*
X91835335Y-53505000D01*
X92112574Y-53449853D01*
X92373727Y-53341680D01*
X92608759Y-53184637D01*
X92808637Y-52984759D01*
X92965680Y-52749727D01*
X93073853Y-52488574D01*
X93129000Y-52211335D01*
X93129000Y-51928665D01*
X95339000Y-51928665D01*
X95339000Y-52211335D01*
X95394147Y-52488574D01*
X95502320Y-52749727D01*
X95659363Y-52984759D01*
X95859241Y-53184637D01*
X96094273Y-53341680D01*
X96355426Y-53449853D01*
X96632665Y-53505000D01*
X96915335Y-53505000D01*
X97192574Y-53449853D01*
X97453727Y-53341680D01*
X97688759Y-53184637D01*
X97888637Y-52984759D01*
X98045680Y-52749727D01*
X98153853Y-52488574D01*
X98209000Y-52211335D01*
X98209000Y-51928665D01*
X98153853Y-51651426D01*
X98045680Y-51390273D01*
X97888637Y-51155241D01*
X97688759Y-50955363D01*
X97453727Y-50798320D01*
X97192574Y-50690147D01*
X96915335Y-50635000D01*
X96632665Y-50635000D01*
X96355426Y-50690147D01*
X96094273Y-50798320D01*
X95859241Y-50955363D01*
X95659363Y-51155241D01*
X95502320Y-51390273D01*
X95394147Y-51651426D01*
X95339000Y-51928665D01*
X93129000Y-51928665D01*
X93073853Y-51651426D01*
X92965680Y-51390273D01*
X92808637Y-51155241D01*
X92608759Y-50955363D01*
X92373727Y-50798320D01*
X92112574Y-50690147D01*
X91835335Y-50635000D01*
X91552665Y-50635000D01*
X91275426Y-50690147D01*
X91014273Y-50798320D01*
X90779241Y-50955363D01*
X90579363Y-51155241D01*
X90424000Y-51387759D01*
X90268637Y-51155241D01*
X90068759Y-50955363D01*
X89833727Y-50798320D01*
X89572574Y-50690147D01*
X89295335Y-50635000D01*
X89012665Y-50635000D01*
X88735426Y-50690147D01*
X88474273Y-50798320D01*
X88239241Y-50955363D01*
X88039363Y-51155241D01*
X87884000Y-51387759D01*
X87728637Y-51155241D01*
X87528759Y-50955363D01*
X87293727Y-50798320D01*
X87032574Y-50690147D01*
X86755335Y-50635000D01*
X86472665Y-50635000D01*
X86195426Y-50690147D01*
X85934273Y-50798320D01*
X85699241Y-50955363D01*
X85499363Y-51155241D01*
X85344000Y-51387759D01*
X85188637Y-51155241D01*
X84988759Y-50955363D01*
X84753727Y-50798320D01*
X84492574Y-50690147D01*
X84215335Y-50635000D01*
X83932665Y-50635000D01*
X83655426Y-50690147D01*
X83394273Y-50798320D01*
X83159241Y-50955363D01*
X82959363Y-51155241D01*
X82802320Y-51390273D01*
X82694147Y-51651426D01*
X82639000Y-51928665D01*
X79921000Y-51928665D01*
X79865853Y-51651426D01*
X79757680Y-51390273D01*
X79600637Y-51155241D01*
X79400759Y-50955363D01*
X79165727Y-50798320D01*
X78904574Y-50690147D01*
X78627335Y-50635000D01*
X78344665Y-50635000D01*
X78067426Y-50690147D01*
X77806273Y-50798320D01*
X77571241Y-50955363D01*
X77371363Y-51155241D01*
X77214320Y-51390273D01*
X77106147Y-51651426D01*
X77051000Y-51928665D01*
X51485800Y-51928665D01*
X51485800Y-41816881D01*
X51834724Y-41816881D01*
X52194912Y-42306548D01*
X52858882Y-42666849D01*
X53580385Y-42890694D01*
X54331695Y-42969480D01*
X55083938Y-42900178D01*
X55808208Y-42685452D01*
X56476670Y-42333555D01*
X56517088Y-42306548D01*
X56877276Y-41816881D01*
X54356000Y-39295605D01*
X51834724Y-41816881D01*
X51485800Y-41816881D01*
X51485800Y-41512729D01*
X51655119Y-41637276D01*
X54176395Y-39116000D01*
X54535605Y-39116000D01*
X57056881Y-41637276D01*
X57546548Y-41277088D01*
X57906849Y-40613118D01*
X58130694Y-39891615D01*
X58209480Y-39140305D01*
X58172141Y-38735000D01*
X59563000Y-38735000D01*
X59563000Y-49022000D01*
X59565440Y-49046776D01*
X59572667Y-49070601D01*
X59584403Y-49092557D01*
X59600197Y-49111803D01*
X59619443Y-49127597D01*
X59641399Y-49139333D01*
X59665224Y-49146560D01*
X59690000Y-49149000D01*
X68072000Y-49149000D01*
X68096776Y-49146560D01*
X68120601Y-49139333D01*
X68142557Y-49127597D01*
X68161803Y-49111803D01*
X68177597Y-49092557D01*
X68189333Y-49070601D01*
X68196560Y-49046776D01*
X68199000Y-49022000D01*
X68199000Y-47518967D01*
X73676000Y-47518967D01*
X73676000Y-47841033D01*
X73738832Y-48156912D01*
X73862082Y-48454463D01*
X74041013Y-48722252D01*
X74268748Y-48949987D01*
X74536537Y-49128918D01*
X74834088Y-49252168D01*
X75149967Y-49315000D01*
X75472033Y-49315000D01*
X75787912Y-49252168D01*
X76085463Y-49128918D01*
X76353252Y-48949987D01*
X76580987Y-48722252D01*
X76759918Y-48454463D01*
X76883168Y-48156912D01*
X76946000Y-47841033D01*
X76946000Y-47518967D01*
X80176000Y-47518967D01*
X80176000Y-47841033D01*
X80238832Y-48156912D01*
X80362082Y-48454463D01*
X80541013Y-48722252D01*
X80768748Y-48949987D01*
X81036537Y-49128918D01*
X81334088Y-49252168D01*
X81649967Y-49315000D01*
X81972033Y-49315000D01*
X82287912Y-49252168D01*
X82585463Y-49128918D01*
X82853252Y-48949987D01*
X83080987Y-48722252D01*
X83259918Y-48454463D01*
X83383168Y-48156912D01*
X83446000Y-47841033D01*
X83446000Y-47518967D01*
X83383168Y-47203088D01*
X83259918Y-46905537D01*
X83080987Y-46637748D01*
X82853252Y-46410013D01*
X82585463Y-46231082D01*
X82287912Y-46107832D01*
X81972033Y-46045000D01*
X81649967Y-46045000D01*
X81334088Y-46107832D01*
X81036537Y-46231082D01*
X80768748Y-46410013D01*
X80541013Y-46637748D01*
X80362082Y-46905537D01*
X80238832Y-47203088D01*
X80176000Y-47518967D01*
X76946000Y-47518967D01*
X76883168Y-47203088D01*
X76759918Y-46905537D01*
X76580987Y-46637748D01*
X76353252Y-46410013D01*
X76085463Y-46231082D01*
X75787912Y-46107832D01*
X75472033Y-46045000D01*
X75149967Y-46045000D01*
X74834088Y-46107832D01*
X74536537Y-46231082D01*
X74268748Y-46410013D01*
X74041013Y-46637748D01*
X73862082Y-46905537D01*
X73738832Y-47203088D01*
X73676000Y-47518967D01*
X68199000Y-47518967D01*
X68199000Y-45505000D01*
X85252928Y-45505000D01*
X85252928Y-47205000D01*
X85265188Y-47329482D01*
X85301498Y-47449180D01*
X85360463Y-47559494D01*
X85439815Y-47656185D01*
X85536506Y-47735537D01*
X85646820Y-47794502D01*
X85766518Y-47830812D01*
X85891000Y-47843072D01*
X87591000Y-47843072D01*
X87715482Y-47830812D01*
X87835180Y-47794502D01*
X87945494Y-47735537D01*
X88042185Y-47656185D01*
X88121537Y-47559494D01*
X88180502Y-47449180D01*
X88202513Y-47376620D01*
X88334368Y-47508475D01*
X88577589Y-47670990D01*
X88847842Y-47782932D01*
X89134740Y-47840000D01*
X89427260Y-47840000D01*
X89714158Y-47782932D01*
X89984411Y-47670990D01*
X90227632Y-47508475D01*
X90434475Y-47301632D01*
X90551000Y-47127240D01*
X90667525Y-47301632D01*
X90874368Y-47508475D01*
X91117589Y-47670990D01*
X91387842Y-47782932D01*
X91674740Y-47840000D01*
X91967260Y-47840000D01*
X92254158Y-47782932D01*
X92524411Y-47670990D01*
X92767632Y-47508475D01*
X92974475Y-47301632D01*
X93136990Y-47058411D01*
X93248932Y-46788158D01*
X93306000Y-46501260D01*
X93306000Y-46208740D01*
X93248932Y-45921842D01*
X93136990Y-45651589D01*
X92974475Y-45408368D01*
X92767632Y-45201525D01*
X92591594Y-45083900D01*
X92821269Y-44912588D01*
X93016178Y-44696355D01*
X93165157Y-44446252D01*
X93262481Y-44171891D01*
X93141814Y-43942000D01*
X91948000Y-43942000D01*
X91948000Y-43962000D01*
X91694000Y-43962000D01*
X91694000Y-43942000D01*
X91674000Y-43942000D01*
X91674000Y-43688000D01*
X91694000Y-43688000D01*
X91694000Y-42494845D01*
X91948000Y-42494845D01*
X91948000Y-43688000D01*
X93141814Y-43688000D01*
X93262481Y-43458109D01*
X93165157Y-43183748D01*
X93016178Y-42933645D01*
X92821269Y-42717412D01*
X92587920Y-42543359D01*
X92325099Y-42418175D01*
X92177890Y-42373524D01*
X91948000Y-42494845D01*
X91694000Y-42494845D01*
X91464110Y-42373524D01*
X91316901Y-42418175D01*
X91054080Y-42543359D01*
X90820731Y-42717412D01*
X90625822Y-42933645D01*
X90556195Y-43050534D01*
X90434475Y-42868368D01*
X90227632Y-42661525D01*
X89984411Y-42499010D01*
X89714158Y-42387068D01*
X89427260Y-42330000D01*
X89134740Y-42330000D01*
X88847842Y-42387068D01*
X88577589Y-42499010D01*
X88334368Y-42661525D01*
X88127525Y-42868368D01*
X88011000Y-43042760D01*
X87894475Y-42868368D01*
X87687632Y-42661525D01*
X87444411Y-42499010D01*
X87174158Y-42387068D01*
X86887260Y-42330000D01*
X86594740Y-42330000D01*
X86307842Y-42387068D01*
X86037589Y-42499010D01*
X85794368Y-42661525D01*
X85587525Y-42868368D01*
X85425010Y-43111589D01*
X85313068Y-43381842D01*
X85256000Y-43668740D01*
X85256000Y-43961260D01*
X85313068Y-44248158D01*
X85425010Y-44518411D01*
X85587525Y-44761632D01*
X85719380Y-44893487D01*
X85646820Y-44915498D01*
X85536506Y-44974463D01*
X85439815Y-45053815D01*
X85360463Y-45150506D01*
X85301498Y-45260820D01*
X85265188Y-45380518D01*
X85252928Y-45505000D01*
X68199000Y-45505000D01*
X68199000Y-43018967D01*
X73676000Y-43018967D01*
X73676000Y-43341033D01*
X73738832Y-43656912D01*
X73862082Y-43954463D01*
X74041013Y-44222252D01*
X74268748Y-44449987D01*
X74536537Y-44628918D01*
X74834088Y-44752168D01*
X75149967Y-44815000D01*
X75472033Y-44815000D01*
X75787912Y-44752168D01*
X76085463Y-44628918D01*
X76353252Y-44449987D01*
X76580987Y-44222252D01*
X76759918Y-43954463D01*
X76883168Y-43656912D01*
X76946000Y-43341033D01*
X76946000Y-43018967D01*
X80176000Y-43018967D01*
X80176000Y-43341033D01*
X80238832Y-43656912D01*
X80362082Y-43954463D01*
X80541013Y-44222252D01*
X80768748Y-44449987D01*
X81036537Y-44628918D01*
X81334088Y-44752168D01*
X81649967Y-44815000D01*
X81972033Y-44815000D01*
X82287912Y-44752168D01*
X82585463Y-44628918D01*
X82853252Y-44449987D01*
X83080987Y-44222252D01*
X83259918Y-43954463D01*
X83383168Y-43656912D01*
X83446000Y-43341033D01*
X83446000Y-43018967D01*
X83383168Y-42703088D01*
X83259918Y-42405537D01*
X83080987Y-42137748D01*
X82853252Y-41910013D01*
X82713871Y-41816881D01*
X103269724Y-41816881D01*
X103629912Y-42306548D01*
X104293882Y-42666849D01*
X105015385Y-42890694D01*
X105766695Y-42969480D01*
X106518938Y-42900178D01*
X107243208Y-42685452D01*
X107911670Y-42333555D01*
X107952088Y-42306548D01*
X108312276Y-41816881D01*
X105791000Y-39295605D01*
X103269724Y-41816881D01*
X82713871Y-41816881D01*
X82585463Y-41731082D01*
X82287912Y-41607832D01*
X81972033Y-41545000D01*
X81649967Y-41545000D01*
X81334088Y-41607832D01*
X81036537Y-41731082D01*
X80768748Y-41910013D01*
X80541013Y-42137748D01*
X80362082Y-42405537D01*
X80238832Y-42703088D01*
X80176000Y-43018967D01*
X76946000Y-43018967D01*
X76883168Y-42703088D01*
X76759918Y-42405537D01*
X76580987Y-42137748D01*
X76353252Y-41910013D01*
X76085463Y-41731082D01*
X75787912Y-41607832D01*
X75472033Y-41545000D01*
X75149967Y-41545000D01*
X74834088Y-41607832D01*
X74536537Y-41731082D01*
X74268748Y-41910013D01*
X74041013Y-42137748D01*
X73862082Y-42405537D01*
X73738832Y-42703088D01*
X73676000Y-43018967D01*
X68199000Y-43018967D01*
X68199000Y-39091695D01*
X101937520Y-39091695D01*
X102006822Y-39843938D01*
X102221548Y-40568208D01*
X102573445Y-41236670D01*
X102600452Y-41277088D01*
X103090119Y-41637276D01*
X105611395Y-39116000D01*
X103090119Y-36594724D01*
X102600452Y-36954912D01*
X102240151Y-37618882D01*
X102016306Y-38340385D01*
X101937520Y-39091695D01*
X68199000Y-39091695D01*
X68199000Y-38735000D01*
X68196560Y-38710224D01*
X68189333Y-38686399D01*
X68177597Y-38664443D01*
X68161803Y-38645197D01*
X68142557Y-38629403D01*
X68120601Y-38617667D01*
X68096776Y-38610440D01*
X68072000Y-38608000D01*
X59690000Y-38608000D01*
X59665224Y-38610440D01*
X59641399Y-38617667D01*
X59619443Y-38629403D01*
X59600197Y-38645197D01*
X59584403Y-38664443D01*
X59572667Y-38686399D01*
X59565440Y-38710224D01*
X59563000Y-38735000D01*
X58172141Y-38735000D01*
X58140178Y-38388062D01*
X57925452Y-37663792D01*
X57573555Y-36995330D01*
X57546548Y-36954912D01*
X57056881Y-36594724D01*
X54535605Y-39116000D01*
X54176395Y-39116000D01*
X51655119Y-36594724D01*
X51485800Y-36719271D01*
X51485800Y-36245800D01*
X51959271Y-36245800D01*
X51834724Y-36415119D01*
%TD*%
M02*
