(module logo_hacdc (layer F.Cu) (tedit 5F11C187)
  (fp_text reference G*** (at 0 -11.43) (layer F.SilkS) hide
    (effects (font (size 1.524 1.524) (thickness 0.3)))
  )
  (fp_text value LOGO (at 0 -8.89) (layer F.SilkS) hide
    (effects (font (size 1.524 1.524) (thickness 0.3)))
  )
  (fp_poly (pts (xy 7.112 7.112) (xy -7.112 7.112) (xy -7.112 6.434666) (xy -6.434667 6.434666)
    (xy -5.863167 6.43214) (xy -5.291667 6.429613) (xy -5.651135 6.11464) (xy -5.901487 5.875183)
    (xy -6.133298 5.620981) (xy -6.222635 5.50805) (xy -6.434667 5.216435) (xy -6.434667 6.434666)
    (xy -7.112 6.434666) (xy -7.112 3.822571) (xy -6.434667 3.822571) (xy -6.420748 4.250985)
    (xy -6.365122 4.586441) (xy -6.246987 4.88071) (xy -6.045542 5.185563) (xy -5.739984 5.55277)
    (xy -5.739006 5.553886) (xy -5.461 5.870797) (xy -5.438461 5.660941) (xy -5.165334 5.660941)
    (xy -5.163155 5.889277) (xy -5.133071 6.032461) (xy -5.065836 6.132453) (xy -4.952202 6.231212)
    (xy -4.943279 6.238356) (xy -4.809798 6.33072) (xy -4.661508 6.388658) (xy -4.456062 6.41998)
    (xy -4.151109 6.432496) (xy -3.881164 6.434246) (xy -3.063327 6.434666) (xy -3.181659 5.990166)
    (xy -3.230567 5.699452) (xy -3.02247 5.699452) (xy -3.010467 5.788729) (xy -2.969579 6.029387)
    (xy -2.918657 6.201361) (xy -2.831544 6.316186) (xy -2.682087 6.385395) (xy -2.44413 6.420523)
    (xy -2.091518 6.433103) (xy -1.598097 6.434671) (xy -1.545727 6.434666) (xy -0.303411 6.434666)
    (xy -0.650851 6.074833) (xy -1.019746 5.633195) (xy -1.089964 5.500014) (xy -0.458925 5.500014)
    (xy -0.448592 5.774718) (xy -0.420539 5.955954) (xy -0.368081 6.081627) (xy -0.284535 6.189642)
    (xy -0.260409 6.215771) (xy -0.05515 6.434666) (xy 2.899496 6.434666) (xy 3.53388 6.434666)
    (xy 6.434666 6.434666) (xy 6.431139 4.169833) (xy 6.427611 1.905) (xy 6.153619 2.711484)
    (xy 5.826449 3.526287) (xy 5.416095 4.311026) (xy 4.945585 5.030185) (xy 4.437945 5.648246)
    (xy 3.959427 6.09584) (xy 3.53388 6.434666) (xy 2.899496 6.434666) (xy 3.444913 6.045465)
    (xy 3.762372 5.786402) (xy 4.112667 5.449938) (xy 4.432356 5.09797) (xy 4.495962 5.019979)
    (xy 4.828671 4.550987) (xy 5.166391 3.987546) (xy 5.481907 3.382628) (xy 5.748006 2.789202)
    (xy 5.937471 2.260239) (xy 5.965846 2.159) (xy 6.086646 1.539236) (xy 6.156186 0.830437)
    (xy 6.169292 0.10651) (xy 6.142556 -0.365001) (xy 6.081552 -1.016) (xy 3.083109 -1.016)
    (xy 2.38958 -1.015129) (xy 1.752729 -1.012649) (xy 1.191602 -1.008766) (xy 0.725246 -1.003683)
    (xy 0.372711 -0.997603) (xy 0.153042 -0.99073) (xy 0.084666 -0.983925) (xy 0.124995 -0.900778)
    (xy 0.230703 -0.713707) (xy 0.378291 -0.464238) (xy 0.616373 -0.03623) (xy 0.761133 0.32583)
    (xy 0.829031 0.684922) (xy 0.836528 1.104022) (xy 0.828927 1.259949) (xy 0.751345 1.848071)
    (xy 0.57926 2.36253) (xy 0.288936 2.865342) (xy 0.132404 3.079678) (xy -0.11462 3.433799)
    (xy -0.283344 3.769787) (xy -0.387652 4.134986) (xy -0.441426 4.576745) (xy -0.458222 5.093938)
    (xy -0.458925 5.500014) (xy -1.089964 5.500014) (xy -1.24323 5.209321) (xy -1.336412 4.767066)
    (xy -1.333442 4.442098) (xy -1.314123 4.158025) (xy -1.321641 4.006282) (xy -1.366959 3.950612)
    (xy -1.461038 3.954758) (xy -1.479731 3.958241) (xy -1.718172 4.057749) (xy -2.01449 4.25794)
    (xy -2.325957 4.523286) (xy -2.609845 4.818262) (xy -2.78033 5.039606) (xy -2.943045 5.303324)
    (xy -3.017135 5.501713) (xy -3.02247 5.699452) (xy -3.230567 5.699452) (xy -3.28988 5.346899)
    (xy -3.249838 4.782277) (xy -3.060805 4.291835) (xy -2.85916 4.012384) (xy -2.704928 3.820412)
    (xy -2.660343 3.706292) (xy -2.711278 3.632319) (xy -2.715612 3.629315) (xy -2.909112 3.576301)
    (xy -3.210605 3.579896) (xy -3.571335 3.632652) (xy -3.942545 3.72712) (xy -4.27548 3.855851)
    (xy -4.309786 3.87286) (xy -4.655713 4.072327) (xy -4.888727 4.279234) (xy -5.032939 4.534751)
    (xy -5.112461 4.880046) (xy -5.148855 5.305493) (xy -5.165334 5.660941) (xy -5.438461 5.660941)
    (xy -5.398073 5.284898) (xy -5.343232 4.917107) (xy -5.264553 4.555459) (xy -5.194384 4.322965)
    (xy -4.976688 3.913976) (xy -4.659459 3.531971) (xy -4.291094 3.227868) (xy -4.016626 3.083907)
    (xy -3.643944 2.941579) (xy -3.786208 2.700745) (xy -3.902211 2.591292) (xy -3.220276 2.591292)
    (xy -3.168404 2.822978) (xy -2.999353 3.037692) (xy -2.9845 3.049709) (xy -2.751667 3.233042)
    (xy -2.721328 3.085737) (xy -2.438152 3.085737) (xy -2.337657 3.333331) (xy -2.097762 3.490514)
    (xy -1.724487 3.553636) (xy -1.664641 3.554751) (xy -1.339615 3.556) (xy -1.563288 3.290178)
    (xy -1.722628 3.054572) (xy -1.826795 2.816918) (xy -1.83575 2.780416) (xy -1.878713 2.651567)
    (xy -1.524 2.651567) (xy -1.480201 2.957179) (xy -1.324789 3.203466) (xy -1.296493 3.233867)
    (xy -1.118222 3.403814) (xy -0.981425 3.459219) (xy -0.816966 3.413757) (xy -0.694096 3.353001)
    (xy -0.464761 3.201418) (xy -0.304178 3.056668) (xy -0.199612 2.9301) (xy -0.210531 2.884295)
    (xy -0.291583 2.878666) (xy -0.563419 2.816504) (xy -0.856454 2.659744) (xy -1.095448 2.452979)
    (xy -1.160626 2.363627) (xy -1.296072 2.208505) (xy -1.41162 2.210939) (xy -1.492509 2.359232)
    (xy -1.523974 2.641683) (xy -1.524 2.651567) (xy -1.878713 2.651567) (xy -1.911249 2.553993)
    (xy -2.025196 2.489638) (xy -2.194418 2.58147) (xy -2.253919 2.634298) (xy -2.414779 2.858924)
    (xy -2.438152 3.085737) (xy -2.721328 3.085737) (xy -2.684655 2.907688) (xy -2.635752 2.649098)
    (xy -2.602729 2.436787) (xy -2.599988 2.413) (xy -2.641966 2.267824) (xy -2.777494 2.216)
    (xy -3.014353 2.245644) (xy -3.165436 2.384795) (xy -3.220276 2.591292) (xy -3.902211 2.591292)
    (xy -3.993682 2.504987) (xy -4.333523 2.368554) (xy -4.776871 2.299008) (xy -5.294864 2.303915)
    (xy -5.299044 2.304259) (xy -5.593658 2.339777) (xy -5.791946 2.409546) (xy -5.966904 2.549718)
    (xy -6.113121 2.707441) (xy -6.266117 2.885459) (xy -6.360747 3.03082) (xy -6.411033 3.19215)
    (xy -6.430996 3.418076) (xy -6.434657 3.757225) (xy -6.434667 3.822571) (xy -7.112 3.822571)
    (xy -7.112 0.668692) (xy -6.434667 0.668692) (xy -6.434667 2.743699) (xy -6.117167 2.440193)
    (xy -5.888003 2.239245) (xy -5.669385 2.076187) (xy -5.588 2.027186) (xy -5.390226 1.959733)
    (xy -3.660667 1.959733) (xy -3.650476 2.129732) (xy -3.625537 2.208342) (xy -3.539391 2.45546)
    (xy -3.30206 2.201397) (xy -3.128835 2.040977) (xy -2.988444 1.953042) (xy -2.961331 1.947333)
    (xy -2.9014 1.919628) (xy -2.963334 1.820333) (xy -2.98721 1.806222) (xy -2.370667 1.806222)
    (xy -2.337907 2.013638) (xy -2.212318 2.102936) (xy -2.053783 2.116666) (xy -1.849788 2.116666)
    (xy -2.046728 1.867351) (xy -2.219546 1.673764) (xy -2.31834 1.628792) (xy -2.020836 1.628792)
    (xy -1.921208 1.756568) (xy -1.841538 1.817136) (xy -1.694876 1.902811) (xy -1.605068 1.878128)
    (xy -1.545204 1.805755) (xy -1.518674 1.760534) (xy -1.099156 1.760534) (xy -1.029343 1.993458)
    (xy -0.933598 2.196896) (xy -0.793661 2.435527) (xy -0.646808 2.560313) (xy -0.430747 2.60925)
    (xy -0.24326 2.617982) (xy -0.05971 2.610107) (xy 0.058105 2.550526) (xy 0.156128 2.400436)
    (xy 0.243573 2.206804) (xy 0.368525 1.899395) (xy 0.414214 1.719119) (xy 0.376298 1.641251)
    (xy 0.250435 1.641064) (xy 0.148166 1.663613) (xy -0.243373 1.723388) (xy -0.631885 1.72071)
    (xy -0.910167 1.665324) (xy -1.059475 1.652152) (xy -1.099156 1.760534) (xy -1.518674 1.760534)
    (xy -1.458664 1.658251) (xy -1.439334 1.592484) (xy -1.513811 1.547205) (xy -1.696928 1.524586)
    (xy -1.735667 1.524) (xy -1.958731 1.550555) (xy -2.020836 1.628792) (xy -2.31834 1.628792)
    (xy -2.322576 1.626864) (xy -2.366895 1.724562) (xy -2.370667 1.806222) (xy -2.98721 1.806222)
    (xy -3.154467 1.707372) (xy -3.389797 1.724079) (xy -3.563675 1.827278) (xy -3.660667 1.959733)
    (xy -5.390226 1.959733) (xy -5.162854 1.882186) (xy -4.684347 1.836131) (xy -4.402667 1.862666)
    (xy -4.187006 1.893691) (xy -4.089799 1.868607) (xy -4.06453 1.769487) (xy -4.064 1.732144)
    (xy -4.134078 1.548486) (xy -4.167081 1.508094) (xy -3.723777 1.508094) (xy -3.674094 1.567692)
    (xy -3.561567 1.526978) (xy -3.421123 1.481666) (xy -2.624667 1.481666) (xy -2.606553 1.594629)
    (xy -2.591392 1.608666) (xy -2.536799 1.542461) (xy -2.509383 1.481666) (xy -2.507623 1.372645)
    (xy -2.542658 1.354666) (xy -2.615428 1.423283) (xy -2.624667 1.481666) (xy -3.421123 1.481666)
    (xy -3.345715 1.457337) (xy -3.180567 1.439333) (xy -3.007993 1.390745) (xy -2.968412 1.275924)
    (xy -3.019879 1.206615) (xy -1.875037 1.206615) (xy -1.851243 1.241432) (xy -1.691588 1.344513)
    (xy -1.533028 1.321364) (xy -1.478693 1.265187) (xy -1.455852 1.121757) (xy -1.463022 1.068786)
    (xy -1.093118 1.068786) (xy -0.99587 1.214897) (xy -0.8255 1.344925) (xy -0.471136 1.496467)
    (xy -0.095954 1.496845) (xy 0.224865 1.396941) (xy 0.528958 1.269883) (xy 0.490355 0.804372)
    (xy 0.459644 0.537214) (xy 0.421617 0.344159) (xy 0.396394 0.283505) (xy 0.314259 0.305311)
    (xy 0.183102 0.430205) (xy 0.156303 0.463001) (xy -0.142178 0.721582) (xy -0.52795 0.887598)
    (xy -0.843948 0.931333) (xy -1.042733 0.968552) (xy -1.093118 1.068786) (xy -1.463022 1.068786)
    (xy -1.477999 0.958138) (xy -1.532606 0.740567) (xy -1.738913 0.934382) (xy -1.8724 1.091137)
    (xy -1.875037 1.206615) (xy -3.019879 1.206615) (xy -3.06839 1.141288) (xy -3.132667 1.100666)
    (xy -3.357254 1.0643) (xy -3.565143 1.162315) (xy -3.67304 1.316905) (xy -3.723777 1.508094)
    (xy -4.167081 1.508094) (xy -4.321158 1.319524) (xy -4.59051 1.075131) (xy -4.907406 0.845177)
    (xy -5.237117 0.659537) (xy -5.383364 0.597307) (xy -5.659309 0.501982) (xy -5.845401 0.469508)
    (xy -6.00718 0.495458) (xy -6.141269 0.546103) (xy -6.434667 0.668692) (xy -7.112 0.668692)
    (xy -7.112 0.105645) (xy -6.434667 0.105645) (xy -6.424112 0.317589) (xy -6.379628 0.396375)
    (xy -6.286501 0.379451) (xy -5.74773 0.242486) (xy -5.192628 0.266605) (xy -4.64602 0.448634)
    (xy -4.338143 0.628413) (xy -4.105297 0.78001) (xy -3.965362 0.840073) (xy -3.877151 0.82047)
    (xy -3.833163 0.776484) (xy -3.319838 0.776484) (xy -3.221237 0.851644) (xy -3.111468 0.895799)
    (xy -2.874358 0.977557) (xy -2.755017 0.998665) (xy -2.713504 0.96013) (xy -2.709334 0.905933)
    (xy -2.778878 0.722387) (xy -2.945638 0.617312) (xy -3.14681 0.613803) (xy -3.285035 0.694234)
    (xy -3.319838 0.776484) (xy -3.833163 0.776484) (xy -3.831167 0.774489) (xy -3.7406 0.597542)
    (xy -3.725334 0.508441) (xy -3.740859 0.44296) (xy -2.758941 0.44296) (xy -2.724096 0.522594)
    (xy -2.627119 0.63239) (xy -2.457323 0.772815) (xy -2.351063 0.784592) (xy -2.334229 0.68536)
    (xy -2.133549 0.68536) (xy -2.095092 0.947387) (xy -1.915379 0.767239) (xy -1.800373 0.631922)
    (xy -1.806728 0.550352) (xy -1.862667 0.506509) (xy -1.970397 0.460048) (xy -1.27 0.460048)
    (xy -1.194786 0.518836) (xy -1.004754 0.556272) (xy -0.753323 0.570265) (xy -0.493908 0.558723)
    (xy -0.279928 0.519554) (xy -0.229644 0.500785) (xy -0.038545 0.359889) (xy 0.107814 0.179012)
    (xy 0.179456 0.038908) (xy 0.187239 -0.079869) (xy 0.120319 -0.232656) (xy -0.015213 -0.448773)
    (xy -0.204615 -0.714247) (xy -0.33156 -0.827613) (xy -0.402351 -0.791507) (xy -0.423334 -0.619436)
    (xy -0.47544 -0.428452) (xy -0.643192 -0.194744) (xy -0.846667 0.015835) (xy -1.056968 0.22335)
    (xy -1.208505 0.382056) (xy -1.269863 0.45899) (xy -1.27 0.460048) (xy -1.970397 0.460048)
    (xy -2.04516 0.427805) (xy -2.132912 0.488869) (xy -2.133549 0.68536) (xy -2.334229 0.68536)
    (xy -2.33196 0.671987) (xy -2.357417 0.583692) (xy -2.431718 0.448692) (xy -2.480692 0.417053)
    (xy -2.609726 0.422622) (xy -2.681759 0.423333) (xy -2.758941 0.44296) (xy -3.740859 0.44296)
    (xy -3.775791 0.295629) (xy -3.907 0.007533) (xy -4.08872 -0.303252) (xy -4.290707 -0.584128)
    (xy -4.45364 -0.758229) (xy -4.649569 -0.909468) (xy -4.838916 -0.986952) (xy -5.093393 -1.014034)
    (xy -5.245084 -1.016) (xy -5.525098 -1.00938) (xy -5.709155 -0.969399) (xy -5.862058 -0.865879)
    (xy -6.048608 -0.668642) (xy -6.088805 -0.62308) (xy -6.295389 -0.364663) (xy -6.400981 -0.155024)
    (xy -6.434167 0.066066) (xy -6.434667 0.105645) (xy -7.112 0.105645) (xy -7.112 -0.931334)
    (xy -6.434667 -0.931334) (xy -6.40578 -0.848868) (xy -6.397331 -0.846667) (xy -6.325045 -0.905996)
    (xy -6.307667 -0.931334) (xy -6.31438 -1.009353) (xy -6.345004 -1.016) (xy -6.431222 -0.95454)
    (xy -6.434667 -0.931334) (xy -7.112 -0.931334) (xy -7.112 -1.023074) (xy -4.247282 -1.023074)
    (xy -3.962901 -0.773384) (xy -3.745822 -0.536637) (xy -3.543127 -0.243017) (xy -3.488508 -0.143232)
    (xy -3.319232 0.115112) (xy -3.158652 0.205879) (xy -3.014761 0.129619) (xy -2.952835 0.003526)
    (xy -1.800597 0.003526) (xy -1.78792 0.137302) (xy -1.656947 0.161225) (xy -1.400938 0.078511)
    (xy -1.209756 -0.008671) (xy -0.880184 -0.237526) (xy -0.665232 -0.533352) (xy -0.592667 -0.842463)
    (xy -0.613856 -0.946516) (xy -0.705406 -0.998328) (xy -0.909292 -1.015171) (xy -1.014387 -1.016)
    (xy -1.268246 -1.007775) (xy -1.40283 -0.966901) (xy -1.467991 -0.869077) (xy -1.492068 -0.783167)
    (xy -1.568558 -0.549798) (xy -1.683153 -0.281256) (xy -1.70172 -0.243317) (xy -1.800597 0.003526)
    (xy -2.952835 0.003526) (xy -2.895548 -0.113118) (xy -2.874316 -0.185492) (xy -2.821426 -0.462181)
    (xy -2.80738 -0.712054) (xy -2.810166 -0.747287) (xy -2.829929 -0.858032) (xy -2.87601 -0.919617)
    (xy -2.601843 -0.919617) (xy -2.591392 -0.882076) (xy -2.559416 -0.716982) (xy -2.541436 -0.465512)
    (xy -2.54 -0.374076) (xy -2.52863 -0.138869) (xy -2.481239 -0.028709) (xy -2.377911 -0.000077)
    (xy -2.368802 0) (xy -2.200273 -0.080541) (xy -1.999208 -0.316241) (xy -1.945469 -0.397577)
    (xy -1.770955 -0.690797) (xy -1.706386 -0.873547) (xy -1.760998 -0.971489) (xy -1.944028 -1.010283)
    (xy -2.168059 -1.016) (xy -2.438032 -1.008739) (xy -2.571729 -0.980059) (xy -2.601843 -0.919617)
    (xy -2.87601 -0.919617) (xy -2.88122 -0.926579) (xy -2.999158 -0.964979) (xy -3.218864 -0.985284)
    (xy -3.541808 -0.998371) (xy -4.247282 -1.023074) (xy -7.112 -1.023074) (xy -7.112 -2.963334)
    (xy -6.434667 -2.963334) (xy -6.434667 -2.284936) (xy 6.392333 -2.328334) (xy 6.41861 -2.645834)
    (xy 6.444888 -2.963334) (xy -6.434667 -2.963334) (xy -7.112 -2.963334) (xy -7.112 -6.519334)
    (xy -6.434667 -6.519334) (xy -6.434667 -4.318) (xy 6.434666 -4.318) (xy 6.434666 -6.519334)
    (xy -6.434667 -6.519334) (xy -7.112 -6.519334) (xy -7.112 -7.112) (xy 7.112 -7.112)
    (xy 7.112 7.112)) (layer F.SilkS) (width 0.01))
  (fp_poly (pts (xy -3.150496 -5.635653) (xy -2.99954 -5.456093) (xy -2.861643 -5.418667) (xy -2.671656 -5.418667)
    (xy -2.856732 -5.289035) (xy -2.985202 -5.159791) (xy -2.980116 -5.001227) (xy -2.96204 -4.949598)
    (xy -2.914884 -4.805318) (xy -2.957301 -4.793542) (xy -3.07522 -4.866217) (xy -3.236689 -4.94691)
    (xy -3.372509 -4.915117) (xy -3.457837 -4.859792) (xy -3.59023 -4.776361) (xy -3.620887 -4.812857)
    (xy -3.589268 -4.958978) (xy -3.57858 -5.167154) (xy -3.686698 -5.304841) (xy -3.790744 -5.390989)
    (xy -3.746706 -5.417014) (xy -3.659553 -5.418667) (xy -3.473946 -5.495247) (xy -3.363052 -5.635653)
    (xy -3.249361 -5.852638) (xy -3.150496 -5.635653)) (layer F.SilkS) (width 0.01))
  (fp_poly (pts (xy 0.07069 -5.6515) (xy 0.211973 -5.459146) (xy 0.357737 -5.415974) (xy 0.491341 -5.405573)
    (xy 0.470838 -5.355541) (xy 0.391902 -5.293302) (xy 0.277613 -5.134597) (xy 0.287681 -4.957328)
    (xy 0.321776 -4.785092) (xy 0.285322 -4.760574) (xy 0.158074 -4.873579) (xy 0.145747 -4.885872)
    (xy 0.013003 -4.97874) (xy -0.094641 -4.934422) (xy -0.100996 -4.928205) (xy -0.241512 -4.831568)
    (xy -0.305963 -4.882702) (xy -0.291648 -5.026192) (xy -0.292681 -5.205668) (xy -0.395869 -5.291846)
    (xy -0.489095 -5.344554) (xy -0.436442 -5.384986) (xy -0.341755 -5.412243) (xy -0.146309 -5.54222)
    (xy -0.078469 -5.675755) (xy -0.023762 -5.884334) (xy 0.07069 -5.6515)) (layer F.SilkS) (width 0.01))
  (fp_poly (pts (xy 3.333651 -5.64275) (xy 3.433764 -5.460776) (xy 3.56798 -5.418667) (xy 3.690172 -5.401967)
    (xy 3.665676 -5.323675) (xy 3.629871 -5.27866) (xy 3.545377 -5.093971) (xy 3.54016 -4.982327)
    (xy 3.522904 -4.84746) (xy 3.421693 -4.847253) (xy 3.320933 -4.9256) (xy 3.213534 -4.971464)
    (xy 3.071001 -4.888491) (xy 3.043652 -4.864399) (xy 2.920639 -4.76033) (xy 2.890986 -4.783522)
    (xy 2.927136 -4.947306) (xy 2.943902 -5.155975) (xy 2.847802 -5.293349) (xy 2.832635 -5.304841)
    (xy 2.728589 -5.390989) (xy 2.772628 -5.417014) (xy 2.85978 -5.418667) (xy 3.045985 -5.496303)
    (xy 3.160001 -5.64275) (xy 3.27741 -5.866834) (xy 3.333651 -5.64275)) (layer F.SilkS) (width 0.01))
)
